<svg version="1.1" xmlns="http://www.w3.org/2000/svg" viewBox="0 0 2120.9244618462917 824.510467682172" width="2120.9244618462917" height="824.510467682172">
  <!-- svg-source:excalidraw -->
  
  <defs>
    <style class="style-fonts">
      @font-face {
        font-family: "Virgil";
        src: url("https://excalidraw.com/Virgil.woff2");
      }
      @font-face {
        font-family: "Cascadia";
        src: url("https://excalidraw.com/Cascadia.woff2");
      }
    </style>
  </defs>
  <rect x="0" y="0" width="2120.9244618462917" height="824.510467682172" fill="#ffffff"></rect><g transform="translate(92.99999999999682 229.71428571428987) rotate(0 31.399999618530273 22.5)"><text x="0" y="0" font-family="Virgil, Segoe UI Emoji" font-size="36px" fill="#364fc7" text-anchor="start" style="white-space: pre;" direction="ltr" dominant-baseline="text-before-edge">sum</text></g><g stroke-linecap="round"><g transform="translate(179.7142857142826 258.5714285714348) rotate(0 -1.8404462625351528 238.23294471933696)"><path d="M-0.79 0.69 C-1.22 79.95, -2.99 397.43, -3.43 476.46 M0.99 0.01 C0.43 78.85, -3.77 395.44, -4.67 474.73" stroke="#364fc7" stroke-width="4" fill="none"></path></g></g><mask></mask><g stroke-linecap="round"><g transform="translate(15.428571428568375 335.7142857142899) rotate(0 589.4547487559132 2.21537885948419)"><path d="M0.69 -0.57 C197.1 0.19, 983.15 2.96, 1179.32 3.75 M-0.41 1.75 C195.83 2.73, 982 4.39, 1178.76 5" stroke="#364fc7" stroke-width="4" fill="none"></path></g></g><mask></mask><g stroke-linecap="round"><g transform="translate(178.2857142857115 332.85714285714494) rotate(0 -74.5051396152431 -38.62781698794424)"><path d="M-0.57 0.74 C-25.29 -12.37, -124.43 -64.92, -149.11 -78 M1.33 0.09 C-23.52 -12.96, -125.2 -64.12, -150.34 -76.91" stroke="#364fc7" stroke-width="4" fill="none"></path></g></g><mask></mask><g transform="translate(16.857142857139934 282.85714285714494) rotate(0 41.125 22.5)"><text x="0" y="0" font-family="Virgil, Segoe UI Emoji" font-size="36px" fill="#364fc7" text-anchor="start" style="white-space: pre;" direction="ltr" dominant-baseline="text-before-edge">coins</text></g><g transform="translate(639.7142857142826 70) rotate(0 52.36249923706055 22.5)"><text x="0" y="0" font-family="Virgil, Segoe UI Emoji" font-size="36px" fill="#364fc7" text-anchor="start" style="white-space: pre;" direction="ltr" dominant-baseline="text-before-edge">1,5,6,9</text></g><g transform="translate(501.14285714285325 75.71428571428987) rotate(0 70.2249984741211 22.5)"><text x="0" y="0" font-family="Virgil, Segoe UI Emoji" font-size="36px" fill="#364fc7" text-anchor="start" style="white-space: pre;" direction="ltr" dominant-baseline="text-before-edge">coins = </text></g><g transform="translate(561.1428571428532 160) rotate(0 77.76249694824219 22.5)"><text x="0" y="0" font-family="Virgil, Segoe UI Emoji" font-size="36px" fill="#364fc7" text-anchor="start" style="white-space: pre;" direction="ltr" dominant-baseline="text-before-edge">sum = 10</text></g><g transform="translate(113.99999999999682 436.07142857142026) rotate(0 4.875 22.5)"><text x="0" y="0" font-family="Virgil, Segoe UI Emoji" font-size="36px" fill="#364fc7" text-anchor="start" style="white-space: pre;" direction="ltr" dominant-baseline="text-before-edge">1</text></g><g transform="translate(115.47321428571058 510.7142857142899) rotate(0 11.125 22.5)"><text x="0" y="0" font-family="Virgil, Segoe UI Emoji" font-size="36px" fill="#364fc7" text-anchor="start" style="white-space: pre;" direction="ltr" dominant-baseline="text-before-edge">5</text></g><g transform="translate(112.61607142856792 592.1428571428696) rotate(0 11.524999618530273 22.5)"><text x="0" y="0" font-family="Virgil, Segoe UI Emoji" font-size="36px" fill="#364fc7" text-anchor="start" style="white-space: pre;" direction="ltr" dominant-baseline="text-before-edge">6</text></g><g transform="translate(109.75892857142526 666.4285714285797) rotate(0 10.962499618530273 22.5)"><text x="0" y="0" font-family="Virgil, Segoe UI Emoji" font-size="36px" fill="#364fc7" text-anchor="start" style="white-space: pre;" direction="ltr" dominant-baseline="text-before-edge">9</text></g><g stroke-linecap="round"><g transform="translate(243.99999999999682 281.42857142857974) rotate(0 -0.3883138516925726 224.6340029417952)"><path d="M-0.91 -0.89 C-1.22 74.21, -1.71 375.28, -1.7 450.16 M0.81 1.26 C0.89 76.06, 1.07 373.83, 0.68 448.49" stroke="#5c940d" stroke-width="4" fill="none"></path></g></g><mask></mask><g stroke-linecap="round"><g transform="translate(300.23612154521516 282.2842949424812) rotate(0 1.9554315132221518 228.19171760598692)"><path d="M-0.89 -0.63 C-0.02 75.69, 4.14 380.76, 4.8 457.01 M0.85 1.66 C1.67 77.67, 3.54 378.9, 4.31 455.01" stroke="#5c940d" stroke-width="4" fill="none"></path></g></g><mask></mask><g stroke-linecap="round"><g transform="translate(357.3789786880725 287.9985806567711) rotate(0 3.013146177413148 219.8787266273648)"><path d="M-0.63 0.87 C0.63 74.09, 5.46 365.52, 6.65 438.4 M1.25 0.28 C2.45 73.7, 5.06 366.37, 5.82 439.47" stroke="#5c940d" stroke-width="4" fill="none"></path></g></g><mask></mask><g stroke-linecap="round"><g transform="translate(418.8075501166436 286.57000922819134) rotate(0 1.3306524493677898 221.39152629185992)"><path d="M0.87 0.22 C1.11 73.98, 0.64 368.33, 0.54 441.89 M-0.13 -0.7 C0.56 73.32, 2.34 369.56, 2.79 443.49" stroke="#5c940d" stroke-width="4" fill="none"></path></g></g><mask></mask><g stroke-linecap="round"><g transform="translate(474.52183583092983 283.71286637106095) rotate(0 0.20938150131536304 221.60907618571582)"><path d="M0.22 -0.88 C0.58 72.83, 1.36 368.93, 1.54 443.16 M-1.12 1.27 C-0.85 75.01, 0.39 369.99, 0.64 444.1" stroke="#5c940d" stroke-width="4" fill="none"></path></g></g><mask></mask><g stroke-linecap="round"><g transform="translate(709.3789786880722 276.2842949424812) rotate(0 0.7641145195427157 228.5891280027172)"><path d="M-0.88 0.11 C-0.98 76.17, -0.12 380.56, 0.3 456.61 M0.85 -0.88 C1.03 75.35, 2.4 381.65, 2.42 458.06" stroke="#5c940d" stroke-width="4" fill="none"></path></g></g><mask></mask><g stroke-linecap="round"><g transform="translate(766.5218358309295 276.2842949424812) rotate(0 -0.019863719668705926 227.93879025573187)"><path d="M0.11 -1.13 C0.28 75.19, 1.1 380.59, 1.26 457.01 M-1.3 0.89 C-1.32 76.9, -0.02 379.26, 0.22 455" stroke="#5c940d" stroke-width="4" fill="none"></path></g></g><mask></mask><g stroke-linecap="round"><g transform="translate(825.0932644023584 277.7128663710464) rotate(0 0.2602188271603154 223.23813744176732)"><path d="M-1.13 -0.17 C-0.71 74.22, 1.13 371.94, 1.65 446.43 M0.48 -1.31 C0.84 73.24, 0.64 372.89, 0.82 447.78" stroke="#5c940d" stroke-width="4" fill="none"></path></g></g><mask></mask><g stroke-linecap="round"><g transform="translate(885.0932644023585 279.1414377996407) rotate(0 2.1768254672869034 222.0792742629783)"><path d="M-0.17 0.22 C0.82 74.55, 4.98 370.76, 6.08 444.87 M-1.72 -0.71 C-0.93 73.37, 3.71 369.12, 4.94 443.05" stroke="#5c940d" stroke-width="4" fill="none"></path></g></g><mask></mask><g stroke-linecap="round"><g transform="translate(943.6646929737865 276.2842949424812) rotate(0 0.44393544240313076 224.61055808801757)"><path d="M0.22 -0.35 C0.74 74.55, 1.71 374.18, 2.01 449.27 M-1.12 -1.58 C-0.61 73.54, 0.92 375.81, 1.37 450.81" stroke="#5c940d" stroke-width="4" fill="none"></path></g></g><mask></mask><g stroke-linecap="round"><g transform="translate(1162.5218358309296 281.9985806567711) rotate(0 0.6581097716449449 226.11921033624822)"><path d="M-0.35 0.58 C-0.09 75.95, 0.96 377.32, 1.42 452.4 M1.66 -0.16 C1.78 74.83, 0.39 375.24, 0.46 450.59" stroke="#5c940d" stroke-width="4" fill="none"></path></g></g><mask></mask><g transform="translate(268.85714285713857 10) rotate(0 381.04998779296875 22.5)"><text x="0" y="0" font-family="Virgil, Segoe UI Emoji" font-size="36px" fill="#5c940d" text-anchor="start" style="white-space: pre;" direction="ltr" dominant-baseline="text-before-edge">Minimum number of COINS to make the sum</text></g><g transform="translate(10 262.8571428571595) rotate(0 17.5 22.5)"><text x="0" y="0" font-family="Virgil, Segoe UI Emoji" font-size="36px" fill="#5c940d" text-anchor="start" style="white-space: pre;" direction="ltr" dominant-baseline="text-before-edge">(i)</text></g><g transform="translate(79.64285714285734 198.92857142857974) rotate(0 19.462499618530273 22.5)"><text x="0" y="0" font-family="Virgil, Segoe UI Emoji" font-size="36px" fill="#5c940d" text-anchor="start" style="white-space: pre;" direction="ltr" dominant-baseline="text-before-edge">(j)</text></g><g stroke-linecap="round"><g transform="translate(99.99999999999773 490.64285714285506) rotate(0 552.7885146625872 -0.9801508238815586)"><path d="M-0.91 -0.12 C183.5 -0.45, 922.14 -1.39, 1106.49 -1.84" stroke="#000000" stroke-width="4.5" fill="none" stroke-dasharray="1.5 10"></path></g></g><mask></mask><g stroke-linecap="round"><g transform="translate(100.2268379244938 576.0505961716699) rotate(0 553.3055634618339 -1.3175623936876946)"><path d="M-0.12 0.77 C184.31 0.36, 922.42 -2.78, 1106.73 -3.41" stroke="#000000" stroke-width="4.5" fill="none" stroke-dasharray="1.5 10"></path></g></g><mask></mask><g stroke-linecap="round"><g transform="translate(97.36969506735068 648.9077390288003) rotate(0 552.9681518920298 -0.9114484003075631)"><path d="M0.77 1.01 C185.12 0.56, 921.03 -2.14, 1105.16 -2.84" stroke="#000000" stroke-width="4.5" fill="none" stroke-dasharray="1.5 10"></path></g></g><mask></mask><g stroke-linecap="round"><g transform="translate(94.5125522102071 723.193453314525) rotate(0 553.3742658854063 -1.7828741235935013)"><path d="M1.01 -0.55 C185.32 -1.18, 921.67 -2.46, 1105.74 -3.01" stroke="#000000" stroke-width="4.5" fill="none" stroke-dasharray="1.5 10"></path></g></g><mask></mask><g transform="translate(210.04946184629193 432.010467682172) rotate(0 12.387499809265137 22.5)"><text x="0" y="0" font-family="Virgil, Segoe UI Emoji" font-size="36px" fill="#000000" text-anchor="start" style="white-space: pre;" direction="ltr" dominant-baseline="text-before-edge">0</text></g><g transform="translate(270.04946184629193 436.010467682172) rotate(0 4.875 22.5)"><text x="0" y="0" font-family="Virgil, Segoe UI Emoji" font-size="36px" fill="#000000" text-anchor="start" style="white-space: pre;" direction="ltr" dominant-baseline="text-before-edge">1</text></g><g transform="translate(328.04946184629193 430.010467682172) rotate(0 12.8125 22.5)"><text x="0" y="0" font-family="Virgil, Segoe UI Emoji" font-size="36px" fill="#000000" text-anchor="start" style="white-space: pre;" direction="ltr" dominant-baseline="text-before-edge">2</text></g><g transform="translate(388.04946184629193 428.010467682172) rotate(0 12.262499809265137 22.5)"><text x="0" y="0" font-family="Virgil, Segoe UI Emoji" font-size="36px" fill="#000000" text-anchor="start" style="white-space: pre;" direction="ltr" dominant-baseline="text-before-edge">3</text></g><g transform="translate(442.04946184629193 434.010467682172) rotate(0 11.524999618530273 22.5)"><text x="0" y="0" font-family="Virgil, Segoe UI Emoji" font-size="36px" fill="#000000" text-anchor="start" style="white-space: pre;" direction="ltr" dominant-baseline="text-before-edge">4</text></g><g transform="translate(590.0494618462919 424.010467682172) rotate(0 11.125 22.5)"><text x="0" y="0" font-family="Virgil, Segoe UI Emoji" font-size="36px" fill="#000000" text-anchor="start" style="white-space: pre;" direction="ltr" dominant-baseline="text-before-edge">5</text></g><g transform="translate(736.049461846292 426.010467682172) rotate(0 11.524999618530273 22.5)"><text x="0" y="0" font-family="Virgil, Segoe UI Emoji" font-size="36px" fill="#000000" text-anchor="start" style="white-space: pre;" direction="ltr" dominant-baseline="text-before-edge">6</text></g><g transform="translate(802.049461846292 428.010467682172) rotate(0 9.6875 22.5)"><text x="0" y="0" font-family="Virgil, Segoe UI Emoji" font-size="36px" fill="#000000" text-anchor="start" style="white-space: pre;" direction="ltr" dominant-baseline="text-before-edge">7</text></g><g transform="translate(858.0494618462919 428.010467682172) rotate(0 13.774999618530273 22.5)"><text x="0" y="0" font-family="Virgil, Segoe UI Emoji" font-size="36px" fill="#000000" text-anchor="start" style="white-space: pre;" direction="ltr" dominant-baseline="text-before-edge">8</text></g><g transform="translate(910.0494618462919 428.010467682172) rotate(0 10.962499618530273 22.5)"><text x="0" y="0" font-family="Virgil, Segoe UI Emoji" font-size="36px" fill="#000000" text-anchor="start" style="white-space: pre;" direction="ltr" dominant-baseline="text-before-edge">9</text></g><g transform="translate(1041.549461846292 433.010467682172) rotate(0 17.262500762939453 22.5)"><text x="0" y="0" font-family="Virgil, Segoe UI Emoji" font-size="36px" fill="#000000" text-anchor="start" style="white-space: pre;" direction="ltr" dominant-baseline="text-before-edge">10</text></g><g transform="translate(208.52446222776166 509.510467682172) rotate(0 12.387499809265137 22.5)"><text x="0" y="0" font-family="Virgil, Segoe UI Emoji" font-size="36px" fill="#000000" text-anchor="start" style="white-space: pre;" direction="ltr" dominant-baseline="text-before-edge">0</text></g><g transform="translate(268.52446222776166 513.510467682172) rotate(0 4.875 22.5)"><text x="0" y="0" font-family="Virgil, Segoe UI Emoji" font-size="36px" fill="#000000" text-anchor="start" style="white-space: pre;" direction="ltr" dominant-baseline="text-before-edge">1</text></g><g transform="translate(326.52446222776166 507.510467682172) rotate(0 12.8125 22.5)"><text x="0" y="0" font-family="Virgil, Segoe UI Emoji" font-size="36px" fill="#000000" text-anchor="start" style="white-space: pre;" direction="ltr" dominant-baseline="text-before-edge">2</text></g><g transform="translate(386.52446222776166 505.510467682172) rotate(0 12.262499809265137 22.5)"><text x="0" y="0" font-family="Virgil, Segoe UI Emoji" font-size="36px" fill="#000000" text-anchor="start" style="white-space: pre;" direction="ltr" dominant-baseline="text-before-edge">3</text></g><g transform="translate(440.52446222776166 511.510467682172) rotate(0 11.524999618530273 22.5)"><text x="0" y="0" font-family="Virgil, Segoe UI Emoji" font-size="36px" fill="#000000" text-anchor="start" style="white-space: pre;" direction="ltr" dominant-baseline="text-before-edge">4</text></g><g transform="translate(512.0494618462919 486.010467682172) rotate(0 57.82500076293945 67.5)"><text x="0" y="0" font-family="Virgil, Segoe UI Emoji" font-size="36px" fill="#000000" text-anchor="start" style="white-space: pre;" direction="ltr" dominant-baseline="text-before-edge"> min</text><text x="0" y="45" font-family="Virgil, Segoe UI Emoji" font-size="36px" fill="#000000" text-anchor="start" style="white-space: pre;" direction="ltr" dominant-baseline="text-before-edge">(5,1+0)</text><text x="0" y="90" font-family="Virgil, Segoe UI Emoji" font-size="36px" fill="#000000" text-anchor="start" style="white-space: pre;" direction="ltr" dominant-baseline="text-before-edge"></text></g><g transform="translate(740.049461846292 516.010467682172) rotate(0 12.8125 22.5)"><text x="0" y="0" font-family="Virgil, Segoe UI Emoji" font-size="36px" fill="#000000" text-anchor="start" style="white-space: pre;" direction="ltr" dominant-baseline="text-before-edge">2</text></g><g transform="translate(794.049461846292 516.010467682172) rotate(0 12.262499809265137 22.5)"><text x="0" y="0" font-family="Virgil, Segoe UI Emoji" font-size="36px" fill="#000000" text-anchor="start" style="white-space: pre;" direction="ltr" dominant-baseline="text-before-edge">3</text></g><g transform="translate(850.0494618462919 518.010467682172) rotate(0 11.524999618530273 22.5)"><text x="0" y="0" font-family="Virgil, Segoe UI Emoji" font-size="36px" fill="#000000" text-anchor="start" style="white-space: pre;" direction="ltr" dominant-baseline="text-before-edge">4</text></g><g transform="translate(910.0494618462919 518.010467682172) rotate(0 11.125 22.5)"><text x="0" y="0" font-family="Virgil, Segoe UI Emoji" font-size="36px" fill="#000000" text-anchor="start" style="white-space: pre;" direction="ltr" dominant-baseline="text-before-edge">5</text></g><g transform="translate(968.2244610833525 478.510467682172) rotate(0 56.45000076293945 67.5)"><text x="0" y="0" font-family="Virgil, Segoe UI Emoji" font-size="36px" fill="#000000" text-anchor="start" style="white-space: pre;" direction="ltr" dominant-baseline="text-before-edge"> min</text><text x="0" y="45" font-family="Virgil, Segoe UI Emoji" font-size="36px" fill="#000000" text-anchor="start" style="white-space: pre;" direction="ltr" dominant-baseline="text-before-edge">(10,1+1)</text><text x="0" y="90" font-family="Virgil, Segoe UI Emoji" font-size="36px" fill="#000000" text-anchor="start" style="white-space: pre;" direction="ltr" dominant-baseline="text-before-edge"></text></g><g transform="translate(1066.049461846292 498.010467682172) rotate(0 41.912498474121094 22.5)"><text x="0" y="0" font-family="Virgil, Segoe UI Emoji" font-size="36px" fill="#000000" text-anchor="start" style="white-space: pre;" direction="ltr" dominant-baseline="text-before-edge"> = 2</text></g><g transform="translate(602.1369633721708 497.510467682172) rotate(0 33.974998474121094 22.5)"><text x="0" y="0" font-family="Virgil, Segoe UI Emoji" font-size="36px" fill="#000000" text-anchor="start" style="white-space: pre;" direction="ltr" dominant-baseline="text-before-edge"> = 1</text></g><g transform="translate(210.52446222776166 593.510467682172) rotate(0 12.387499809265137 22.5)"><text x="0" y="0" font-family="Virgil, Segoe UI Emoji" font-size="36px" fill="#000000" text-anchor="start" style="white-space: pre;" direction="ltr" dominant-baseline="text-before-edge">0</text></g><g transform="translate(270.52446222776166 597.510467682172) rotate(0 4.875 22.5)"><text x="0" y="0" font-family="Virgil, Segoe UI Emoji" font-size="36px" fill="#000000" text-anchor="start" style="white-space: pre;" direction="ltr" dominant-baseline="text-before-edge">1</text></g><g transform="translate(328.52446222776166 591.510467682172) rotate(0 12.8125 22.5)"><text x="0" y="0" font-family="Virgil, Segoe UI Emoji" font-size="36px" fill="#000000" text-anchor="start" style="white-space: pre;" direction="ltr" dominant-baseline="text-before-edge">2</text></g><g transform="translate(388.52446222776166 589.510467682172) rotate(0 12.262499809265137 22.5)"><text x="0" y="0" font-family="Virgil, Segoe UI Emoji" font-size="36px" fill="#000000" text-anchor="start" style="white-space: pre;" direction="ltr" dominant-baseline="text-before-edge">3</text></g><g transform="translate(442.52446222776166 595.510467682172) rotate(0 11.524999618530273 22.5)"><text x="0" y="0" font-family="Virgil, Segoe UI Emoji" font-size="36px" fill="#000000" text-anchor="start" style="white-space: pre;" direction="ltr" dominant-baseline="text-before-edge">4</text></g><g transform="translate(576.9244618462919 593.510467682172) rotate(0 4.875 22.5)"><text x="0" y="0" font-family="Virgil, Segoe UI Emoji" font-size="36px" fill="#000000" text-anchor="start" style="white-space: pre;" direction="ltr" dominant-baseline="text-before-edge">1</text></g><g transform="translate(746.0494618462919 598.010467682172) rotate(0 4.875 22.5)"><text x="0" y="0" font-family="Virgil, Segoe UI Emoji" font-size="36px" fill="#000000" text-anchor="start" style="white-space: pre;" direction="ltr" dominant-baseline="text-before-edge">1</text></g><g transform="translate(798.0494618462919 600.010467682172) rotate(0 12.8125 22.5)"><text x="0" y="0" font-family="Virgil, Segoe UI Emoji" font-size="36px" fill="#000000" text-anchor="start" style="white-space: pre;" direction="ltr" dominant-baseline="text-before-edge">2</text></g><g transform="translate(854.0494618462919 600.010467682172) rotate(0 12.262499809265137 22.5)"><text x="0" y="0" font-family="Virgil, Segoe UI Emoji" font-size="36px" fill="#000000" text-anchor="start" style="white-space: pre;" direction="ltr" dominant-baseline="text-before-edge">3</text></g><g transform="translate(916.0494618462919 600.010467682172) rotate(0 11.524999618530273 22.5)"><text x="0" y="0" font-family="Virgil, Segoe UI Emoji" font-size="36px" fill="#000000" text-anchor="start" style="white-space: pre;" direction="ltr" dominant-baseline="text-before-edge">4</text></g><g transform="translate(210.52446222776166 671.510467682172) rotate(0 12.387499809265137 22.5)"><text x="0" y="0" font-family="Virgil, Segoe UI Emoji" font-size="36px" fill="#000000" text-anchor="start" style="white-space: pre;" direction="ltr" dominant-baseline="text-before-edge">0</text></g><g transform="translate(270.52446222776166 675.510467682172) rotate(0 4.875 22.5)"><text x="0" y="0" font-family="Virgil, Segoe UI Emoji" font-size="36px" fill="#000000" text-anchor="start" style="white-space: pre;" direction="ltr" dominant-baseline="text-before-edge">1</text></g><g transform="translate(328.52446222776166 669.510467682172) rotate(0 12.8125 22.5)"><text x="0" y="0" font-family="Virgil, Segoe UI Emoji" font-size="36px" fill="#000000" text-anchor="start" style="white-space: pre;" direction="ltr" dominant-baseline="text-before-edge">2</text></g><g transform="translate(388.52446222776166 667.510467682172) rotate(0 12.262499809265137 22.5)"><text x="0" y="0" font-family="Virgil, Segoe UI Emoji" font-size="36px" fill="#000000" text-anchor="start" style="white-space: pre;" direction="ltr" dominant-baseline="text-before-edge">3</text></g><g transform="translate(442.52446222776166 673.510467682172) rotate(0 11.524999618530273 22.5)"><text x="0" y="0" font-family="Virgil, Segoe UI Emoji" font-size="36px" fill="#000000" text-anchor="start" style="white-space: pre;" direction="ltr" dominant-baseline="text-before-edge">4</text></g><g transform="translate(578.9244618462919 655.510467682172) rotate(0 4.875 22.5)"><text x="0" y="0" font-family="Virgil, Segoe UI Emoji" font-size="36px" fill="#000000" text-anchor="start" style="white-space: pre;" direction="ltr" dominant-baseline="text-before-edge">1</text></g><g transform="translate(744.0494618462919 674.010467682172) rotate(0 11.524999618530273 22.5)"><text x="0" y="0" font-family="Virgil, Segoe UI Emoji" font-size="36px" fill="#000000" text-anchor="start" style="white-space: pre;" direction="ltr" dominant-baseline="text-before-edge">6</text></g><g transform="translate(796.0494618462919 670.010467682172) rotate(0 9.6875 22.5)"><text x="0" y="0" font-family="Virgil, Segoe UI Emoji" font-size="36px" fill="#000000" text-anchor="start" style="white-space: pre;" direction="ltr" dominant-baseline="text-before-edge">7</text></g><g transform="translate(856.0494618462919 672.010467682172) rotate(0 13.774999618530273 22.5)"><text x="0" y="0" font-family="Virgil, Segoe UI Emoji" font-size="36px" fill="#000000" text-anchor="start" style="white-space: pre;" direction="ltr" dominant-baseline="text-before-edge">8</text></g><g transform="translate(922.0494618462919 672.010467682172) rotate(0 4.875 22.5)"><text x="0" y="0" font-family="Virgil, Segoe UI Emoji" font-size="36px" fill="#000000" text-anchor="start" style="white-space: pre;" direction="ltr" dominant-baseline="text-before-edge">1</text></g><g transform="translate(1050.049461846292 676.010467682172) rotate(0 12.8125 22.5)"><text x="0" y="0" font-family="Virgil, Segoe UI Emoji" font-size="36px" fill="#000000" text-anchor="start" style="white-space: pre;" direction="ltr" dominant-baseline="text-before-edge">2</text></g><g stroke-linecap="round" transform="translate(998.0494618462919 652.010467682172) rotate(0 66 54)"><path d="M4.1 10.19 C4.1 10.19, 4.1 10.19, 4.1 10.19 M4.1 10.19 C4.1 10.19, 4.1 10.19, 4.1 10.19 M9.62 28.24 C16.52 19.32, 24.75 13.94, 31.27 3.33 M9.62 28.24 C16.42 19.72, 24.24 11.27, 31.27 3.33 M9.23 53.07 C25.59 33.09, 42.9 17.44, 51.87 4.02 M9.23 53.07 C25.26 36.05, 40.38 17.94, 51.87 4.02 M0.31 87.72 C29.11 57.31, 57.32 24.5, 73.13 3.95 M0.31 87.72 C27.72 56.85, 54.48 24.34, 73.13 3.95 M8.45 102.75 C27.47 79.66, 46.87 58.14, 94.39 3.88 M8.45 102.75 C43.53 64.58, 77.1 24.93, 94.39 3.88 M23.15 110.22 C55.72 70.42, 93.67 30.27, 115.65 3.81 M23.15 110.22 C53.26 73.57, 85.43 39.07, 115.65 3.81 M44.41 110.16 C68.17 82.46, 93.48 52.12, 130.35 11.29 M44.41 110.16 C74.45 76.41, 103.19 44.12, 130.35 11.29 M65.67 110.09 C87.81 83, 110.31 58.41, 135.21 30.09 M65.67 110.09 C80.65 94.36, 93.92 77.63, 135.21 30.09 M86.93 110.02 C103.21 89.46, 122.16 69.12, 135.48 54.17 M86.93 110.02 C100.8 93.4, 115.81 77.45, 135.48 54.17 M107.53 110.7 C114.57 100.24, 126.22 89.26, 135.09 79.01 M107.53 110.7 C114.37 103.56, 120.7 95.94, 135.09 79.01" stroke="#ced4da" stroke-width="2" fill="none"></path><path d="M27 0 M27 0 C51.64 1.44, 75 1.61, 105 0 M27 0 C56.37 0.55, 85.14 -0.34, 105 0 M105 0 C122.58 0.57, 133.66 10.31, 132 27 M105 0 C123.28 -1.02, 130.18 8.13, 132 27 M132 27 C133.52 40, 132.49 52.43, 132 81 M132 27 C132.79 44.12, 132.67 63.54, 132 81 M132 81 C133.64 99.7, 124.68 108.49, 105 108 M132 81 C131.64 99.97, 121.62 109.43, 105 108 M105 108 C77.57 107.03, 54.95 109.52, 27 108 M105 108 C87.81 107.5, 71.71 107.14, 27 108 M27 108 C11 108.2, -0.82 100.78, 0 81 M27 108 C7.37 108.12, -1.11 99.14, 0 81 M0 81 C0.86 68.06, -1.29 55.05, 0 27 M0 81 C-0.05 69.93, -0.21 58.4, 0 27 M0 27 C0.05 8.51, 9.75 0.95, 27 0 M0 27 C1.42 7.13, 11 -0.51, 27 0" stroke="#5c940d" stroke-width="4" fill="none"></path></g><g transform="translate(971.2244629907011 562.510467682172) rotate(0 58.650001525878906 67.5)"><text x="0" y="0" font-family="Virgil, Segoe UI Emoji" font-size="36px" fill="#000000" text-anchor="start" style="white-space: pre;" direction="ltr" dominant-baseline="text-before-edge"> min</text><text x="0" y="45" font-family="Virgil, Segoe UI Emoji" font-size="36px" fill="#000000" text-anchor="start" style="white-space: pre;" direction="ltr" dominant-baseline="text-before-edge">(2,1+4)</text><text x="0" y="90" font-family="Virgil, Segoe UI Emoji" font-size="36px" fill="#000000" text-anchor="start" style="white-space: pre;" direction="ltr" dominant-baseline="text-before-edge"></text></g><g transform="translate(1069.0494637536406 582.010467682172) rotate(0 41.912498474121094 22.5)"><text x="0" y="0" font-family="Virgil, Segoe UI Emoji" font-size="36px" fill="#000000" text-anchor="start" style="white-space: pre;" direction="ltr" dominant-baseline="text-before-edge"> = 2</text></g><g stroke-linecap="round"><g transform="translate(1218.049461846292 522.010467682172) rotate(0 30.31007970663029 -40.28175278566778)"><path d="M0.32 0.38 C10.86 -7.28, 64.13 -31.85, 63.61 -45.4 C63.08 -58.95, 8.26 -75.32, -2.84 -80.94 M-0.98 -0.47 C9.35 -8.53, 62.79 -33.93, 62.45 -47.21 C62.12 -60.48, 7.78 -74.45, -2.99 -80.12" stroke="#e67700" stroke-width="4" fill="none"></path></g><g transform="translate(1218.049461846292 522.010467682172) rotate(0 30.31007970663029 -40.28175278566778)"><path d="M27.64 -80.42 C18.18 -77.87, 5.79 -78.23, -1.52 -78.47 M26.85 -79.35 C16.36 -79.19, 7.17 -80.74, -3 -81.09" stroke="#e67700" stroke-width="4" fill="none"></path></g><g transform="translate(1218.049461846292 522.010467682172) rotate(0 30.31007970663029 -40.28175278566778)"><path d="M20.39 -61.22 C13.22 -64.97, 3.2 -71.62, -1.52 -78.47 M19.61 -60.15 C11.38 -66.44, 4.62 -74.42, -3 -81.09" stroke="#e67700" stroke-width="4" fill="none"></path></g></g><mask></mask><g transform="translate(1304.049461846292 184.51046768217202) rotate(0 403.4375 315)"><text x="0" y="0" font-family="Virgil, Segoe UI Emoji" font-size="36px" fill="#e67700" text-anchor="start" style="white-space: pre;" direction="ltr" dominant-baseline="text-before-edge">There is a shift here.</text><text x="0" y="45" font-family="Virgil, Segoe UI Emoji" font-size="36px" fill="#e67700" text-anchor="start" style="white-space: pre;" direction="ltr" dominant-baseline="text-before-edge">That means, the 2 coins </text><text x="0" y="90" font-family="Virgil, Segoe UI Emoji" font-size="36px" fill="#e67700" text-anchor="start" style="white-space: pre;" direction="ltr" dominant-baseline="text-before-edge">is coming from the second row.</text><text x="0" y="135" font-family="Virgil, Segoe UI Emoji" font-size="36px" fill="#e67700" text-anchor="start" style="white-space: pre;" direction="ltr" dominant-baseline="text-before-edge">So first coin out of the 2 coins </text><text x="0" y="180" font-family="Virgil, Segoe UI Emoji" font-size="36px" fill="#e67700" text-anchor="start" style="white-space: pre;" direction="ltr" dominant-baseline="text-before-edge">for sum 10 is for sure 5. </text><text x="0" y="225" font-family="Virgil, Segoe UI Emoji" font-size="36px" fill="#e67700" text-anchor="start" style="white-space: pre;" direction="ltr" dominant-baseline="text-before-edge">Now the result set is (5, ?).</text><text x="0" y="270" font-family="Virgil, Segoe UI Emoji" font-size="36px" fill="#e67700" text-anchor="start" style="white-space: pre;" direction="ltr" dominant-baseline="text-before-edge">One of the coins now has been chosen. </text><text x="0" y="315" font-family="Virgil, Segoe UI Emoji" font-size="36px" fill="#e67700" text-anchor="start" style="white-space: pre;" direction="ltr" dominant-baseline="text-before-edge">Reduce the coin value from sum,</text><text x="0" y="360" font-family="Virgil, Segoe UI Emoji" font-size="36px" fill="#e67700" text-anchor="start" style="white-space: pre;" direction="ltr" dominant-baseline="text-before-edge">ie, 10-5 = 5. </text><text x="0" y="405" font-family="Virgil, Segoe UI Emoji" font-size="36px" fill="#e67700" text-anchor="start" style="white-space: pre;" direction="ltr" dominant-baseline="text-before-edge"></text><text x="0" y="450" font-family="Virgil, Segoe UI Emoji" font-size="36px" fill="#e67700" text-anchor="start" style="white-space: pre;" direction="ltr" dominant-baseline="text-before-edge">Go to sum 5 column in same row.</text><text x="0" y="495" font-family="Virgil, Segoe UI Emoji" font-size="36px" fill="#e67700" text-anchor="start" style="white-space: pre;" direction="ltr" dominant-baseline="text-before-edge">When you go up there, again there is a shift.</text><text x="0" y="540" font-family="Virgil, Segoe UI Emoji" font-size="36px" fill="#e67700" text-anchor="start" style="white-space: pre;" direction="ltr" dominant-baseline="text-before-edge">So the second coin is also coming from the</text><text x="0" y="585" font-family="Virgil, Segoe UI Emoji" font-size="36px" fill="#e67700" text-anchor="start" style="white-space: pre;" direction="ltr" dominant-baseline="text-before-edge">second row, ie, 5. So result set is (5,5)</text></g><g stroke-linecap="round"><g transform="translate(1118.049461846292 520.010467682172) rotate(0 -213.66398256085813 1.4978048171869887)"><path d="M0.02 0.06 C-71.06 0.51, -355.82 2.23, -427.35 2.93" stroke="#e67700" stroke-width="4.5" fill="none" stroke-dasharray="1.5 10"></path></g><g transform="translate(1118.049461846292 520.010467682172) rotate(0 -213.66398256085813 1.4978048171869887)"><path d="M-399.13 -6.46 C-407.48 -7.08, -411.73 -4.71, -425.87 3.64" stroke="#e67700" stroke-width="4.5" fill="none" stroke-dasharray="1.5 8"></path></g><g transform="translate(1118.049461846292 520.010467682172) rotate(0 -213.66398256085813 1.4978048171869887)"><path d="M-398.98 14.06 C-407.41 8.7, -411.7 6.35, -425.87 3.64" stroke="#e67700" stroke-width="4.5" fill="none" stroke-dasharray="1.5 8"></path></g></g><mask></mask><g stroke-linecap="round"><g transform="translate(681.7393821396618 520.2922204678471) rotate(0 30.183014253692193 -40.637681384665484)"><path d="M0.55 0.31 C11.08 -7.47, 64.65 -32.75, 64.01 -46.05 C63.37 -59.35, 7.87 -73.69, -3.27 -79.5 M-0.61 -0.57 C9.67 -8.21, 63.57 -31.03, 63.07 -44.54 C62.56 -58.04, 7.8 -75.63, -3.65 -81.59" stroke="#e67700" stroke-width="4" fill="none"></path></g><g transform="translate(681.7393821396618 520.2922204678471) rotate(0 30.183014253692193 -40.637681384665484)"><path d="M26.84 -80.19 C15.04 -79.36, 4.75 -79.12, -5.15 -81.72 M25.96 -81.11 C17.48 -81.39, 8.37 -81.51, -4.61 -80.9" stroke="#e67700" stroke-width="4" fill="none"></path></g><g transform="translate(681.7393821396618 520.2922204678471) rotate(0 30.183014253692193 -40.637681384665484)"><path d="M18.93 -61.25 C9.99 -67.53, 2.65 -74.37, -5.15 -81.72 M18.06 -62.17 C11.86 -67.8, 5 -73.32, -4.61 -80.9" stroke="#e67700" stroke-width="4" fill="none"></path></g></g><mask></mask><g stroke-linecap="round"><g transform="translate(93.79149053222159 412.6334803388527) rotate(0 553.3512434538986 -0.6986654321008245)"><path d="M0.03 0.97 C184.39 0.53, 922.52 -1.68, 1106.67 -2.37" stroke="#000000" stroke-width="4.5" fill="none" stroke-dasharray="1.5 10"></path></g></g><mask></mask><g transform="translate(114.08000519480879 369.15332951496384) rotate(0 12.387499809265137 22.5)"><text x="0" y="0" font-family="Virgil, Segoe UI Emoji" font-size="36px" fill="#364fc7" text-anchor="start" style="white-space: pre;" direction="ltr" dominant-baseline="text-before-edge">0</text></g><g transform="translate(204.19250538554365 364.15332951496384) rotate(0 12.387499809265137 22.5)"><text x="0" y="0" font-family="Virgil, Segoe UI Emoji" font-size="36px" fill="#000000" text-anchor="start" style="white-space: pre;" direction="ltr" dominant-baseline="text-before-edge">0</text></g><g transform="translate(259.19250538554365 361.65332951496384) rotate(0 21.087499618530273 22.5)"><text x="0" y="0" font-family="Virgil, Segoe UI Emoji" font-size="36px" fill="#000000" text-anchor="start" style="white-space: pre;" direction="ltr" dominant-baseline="text-before-edge">inf</text></g><g transform="translate(312.15917224294503 358.65332951496384) rotate(0 21.087499618530273 22.5)"><text x="0" y="0" font-family="Virgil, Segoe UI Emoji" font-size="36px" fill="#000000" text-anchor="start" style="white-space: pre;" direction="ltr" dominant-baseline="text-before-edge">inf</text></g><g transform="translate(369.65917224294503 353.65332951496384) rotate(0 21.087499618530273 22.5)"><text x="0" y="0" font-family="Virgil, Segoe UI Emoji" font-size="36px" fill="#000000" text-anchor="start" style="white-space: pre;" direction="ltr" dominant-baseline="text-before-edge">inf</text></g><g transform="translate(427.15917224294503 356.15332951496384) rotate(0 21.087499618530273 22.5)"><text x="0" y="0" font-family="Virgil, Segoe UI Emoji" font-size="36px" fill="#000000" text-anchor="start" style="white-space: pre;" direction="ltr" dominant-baseline="text-before-edge">inf</text></g><g transform="translate(557.159172242945 353.65332951496384) rotate(0 21.087499618530273 22.5)"><text x="0" y="0" font-family="Virgil, Segoe UI Emoji" font-size="36px" fill="#000000" text-anchor="start" style="white-space: pre;" direction="ltr" dominant-baseline="text-before-edge">inf</text></g><g transform="translate(719.659172242945 358.65332951496384) rotate(0 21.087499618530273 22.5)"><text x="0" y="0" font-family="Virgil, Segoe UI Emoji" font-size="36px" fill="#000000" text-anchor="start" style="white-space: pre;" direction="ltr" dominant-baseline="text-before-edge">inf</text></g><g transform="translate(772.159172242945 358.65332951496384) rotate(0 21.087499618530273 22.5)"><text x="0" y="0" font-family="Virgil, Segoe UI Emoji" font-size="36px" fill="#000000" text-anchor="start" style="white-space: pre;" direction="ltr" dominant-baseline="text-before-edge">inf</text></g><g transform="translate(832.159172242945 358.65332951496384) rotate(0 21.087499618530273 22.5)"><text x="0" y="0" font-family="Virgil, Segoe UI Emoji" font-size="36px" fill="#000000" text-anchor="start" style="white-space: pre;" direction="ltr" dominant-baseline="text-before-edge">inf</text></g><g transform="translate(889.659172242945 356.15332951496384) rotate(0 21.087499618530273 22.5)"><text x="0" y="0" font-family="Virgil, Segoe UI Emoji" font-size="36px" fill="#000000" text-anchor="start" style="white-space: pre;" direction="ltr" dominant-baseline="text-before-edge">inf</text></g><g transform="translate(1024.659172242945 358.65332951496384) rotate(0 21.087499618530273 22.5)"><text x="0" y="0" font-family="Virgil, Segoe UI Emoji" font-size="36px" fill="#000000" text-anchor="start" style="white-space: pre;" direction="ltr" dominant-baseline="text-before-edge">inf</text></g><g transform="translate(202.54042214757715 291.06999618161353) rotate(0 12.387499809265137 22.5)"><text x="0" y="0" font-family="Virgil, Segoe UI Emoji" font-size="36px" fill="#364fc7" text-anchor="start" style="white-space: pre;" direction="ltr" dominant-baseline="text-before-edge">0</text></g><g transform="translate(272.5529219568423 291.06999618161353) rotate(0 4.875 22.5)"><text x="0" y="0" font-family="Virgil, Segoe UI Emoji" font-size="36px" fill="#364fc7" text-anchor="start" style="white-space: pre;" direction="ltr" dominant-baseline="text-before-edge">1</text></g><g transform="translate(319.6154219568423 291.0699961816281) rotate(0 12.8125 22.5)"><text x="0" y="0" font-family="Virgil, Segoe UI Emoji" font-size="36px" fill="#364fc7" text-anchor="start" style="white-space: pre;" direction="ltr" dominant-baseline="text-before-edge">2</text></g><g transform="translate(375.16542214757715 288.5699961816281) rotate(0 12.262499809265137 22.5)"><text x="0" y="0" font-family="Virgil, Segoe UI Emoji" font-size="36px" fill="#364fc7" text-anchor="start" style="white-space: pre;" direction="ltr" dominant-baseline="text-before-edge">3</text></g><g transform="translate(438.402922338312 291.0699961816281) rotate(0 11.524999618530273 22.5)"><text x="0" y="0" font-family="Virgil, Segoe UI Emoji" font-size="36px" fill="#364fc7" text-anchor="start" style="white-space: pre;" direction="ltr" dominant-baseline="text-before-edge">4</text></g><g transform="translate(563.3716718614749 282.3199961816281) rotate(0 11.125 22.5)"><text x="0" y="0" font-family="Virgil, Segoe UI Emoji" font-size="36px" fill="#364fc7" text-anchor="start" style="white-space: pre;" direction="ltr" dominant-baseline="text-before-edge">5</text></g><g transform="translate(731.0029222429446 287.3199961816281) rotate(0 11.524999618530273 22.5)"><text x="0" y="0" font-family="Virgil, Segoe UI Emoji" font-size="36px" fill="#364fc7" text-anchor="start" style="white-space: pre;" direction="ltr" dominant-baseline="text-before-edge">6</text></g><g transform="translate(780.3404218614749 284.8199961816281) rotate(0 9.6875 22.5)"><text x="0" y="0" font-family="Virgil, Segoe UI Emoji" font-size="36px" fill="#364fc7" text-anchor="start" style="white-space: pre;" direction="ltr" dominant-baseline="text-before-edge">7</text></g><g transform="translate(836.2529222429446 289.8199961816281) rotate(0 13.774999618530273 22.5)"><text x="0" y="0" font-family="Virgil, Segoe UI Emoji" font-size="36px" fill="#364fc7" text-anchor="start" style="white-space: pre;" direction="ltr" dominant-baseline="text-before-edge">8</text></g><g transform="translate(894.0654222429446 284.8199961816281) rotate(0 10.962499618530273 22.5)"><text x="0" y="0" font-family="Virgil, Segoe UI Emoji" font-size="36px" fill="#364fc7" text-anchor="start" style="white-space: pre;" direction="ltr" dominant-baseline="text-before-edge">9</text></g><g transform="translate(1030.2341710985354 282.3199961816281) rotate(0 17.262500762939453 22.5)"><text x="0" y="0" font-family="Virgil, Segoe UI Emoji" font-size="36px" fill="#364fc7" text-anchor="start" style="white-space: pre;" direction="ltr" dominant-baseline="text-before-edge">10</text></g></svg>