<svg version="1.1" xmlns="http://www.w3.org/2000/svg" viewBox="0 0 1823.4219976594911 750.4976458953606" width="1823.4219976594911" height="750.4976458953606">
  <!-- svg-source:excalidraw -->
  
  <defs>
    <style class="style-fonts">
      @font-face {
        font-family: "Virgil";
        src: url("https://excalidraw.com/Virgil.woff2");
      }
      @font-face {
        font-family: "Cascadia";
        src: url("https://excalidraw.com/Cascadia.woff2");
      }
    </style>
  </defs>
  <rect x="0" y="0" width="1823.4219976594911" height="750.4976458953606" fill="#ffffff"></rect><g stroke-linecap="round" transform="translate(1721.1428571428557 646.3571428571304) rotate(0 45.83333333333337 46.66666666666788)"><path d="M5.44 6.06 C5.44 6.06, 5.44 6.06, 5.44 6.06 M5.44 6.06 C5.44 6.06, 5.44 6.06, 5.44 6.06 M7.02 28.63 C14.85 18.69, 23.85 12.22, 28.02 4.48 M7.02 28.63 C10.81 23.95, 16.19 18.63, 28.02 4.48 M6.63 53.47 C18.2 37.42, 33.64 24.62, 49.28 4.41 M6.63 53.47 C18.06 39.85, 28.9 28.33, 49.28 4.41 M7.55 76.79 C23.41 57.96, 42.85 39.13, 69.88 5.1 M7.55 76.79 C30.04 52.44, 52.66 25.82, 69.88 5.1 M13.73 94.08 C39.14 66.92, 63.1 35.89, 88.52 8.05 M13.73 94.08 C33.45 69.41, 52.96 46.73, 88.52 8.05 M27.77 102.32 C42.16 83.86, 56.23 67.28, 94.69 25.33 M27.77 102.32 C43.83 84.17, 60.12 63.6, 94.69 25.33 M49.03 102.25 C67.18 81.84, 82.94 63.02, 94.3 50.17 M49.03 102.25 C58.75 89.87, 69.8 78.58, 94.3 50.17 M74.23 97.65 C76.81 94.77, 79.98 87.49, 92.6 76.52 M74.23 97.65 C81.65 89.66, 89.53 80.41, 92.6 76.52" stroke="#ced4da" stroke-width="2" fill="none"></path><path d="M22.92 0 M22.92 0 C34.61 -0.65, 45.25 -0.6, 68.75 0 M22.92 0 C33.87 -0.05, 43.97 -0.14, 68.75 0 M68.75 0 C82.51 -1.48, 90.62 9.09, 91.67 22.92 M68.75 0 C84.46 -1.7, 91.87 5.48, 91.67 22.92 M91.67 22.92 C92.72 36.47, 92.77 51.65, 91.67 70.42 M91.67 22.92 C91.45 33.97, 92.56 45.17, 91.67 70.42 M91.67 70.42 C93.26 85.51, 83.33 94.3, 68.75 93.33 M91.67 70.42 C89.73 85.77, 84.34 91.59, 68.75 93.33 M68.75 93.33 C54.52 93.76, 41.88 93.2, 22.92 93.33 M68.75 93.33 C59.87 94.4, 49.83 93.87, 22.92 93.33 M22.92 93.33 C7.55 92.59, 1.94 86.93, 0 70.42 M22.92 93.33 C8.14 91.65, -1.21 84.38, 0 70.42 M0 70.42 C-0.58 53.41, 0.35 35.19, 0 22.92 M0 70.42 C-0.69 58.11, 0.46 44.46, 0 22.92 M0 22.92 C0.9 8.79, 7.81 -1.84, 22.92 0 M0 22.92 C-1.77 9.83, 8.7 1.96, 22.92 0" stroke="#5c940d" stroke-width="4" fill="none"></path></g><g transform="translate(712.4285714285684 229.71428571428987) rotate(0 31.399999618530273 22.5)"><text x="0" y="0" font-family="Virgil, Segoe UI Emoji" font-size="36px" fill="#364fc7" text-anchor="start" style="white-space: pre;" direction="ltr" dominant-baseline="text-before-edge">sum</text></g><g stroke-linecap="round"><g transform="translate(799.1428571428542 258.57142857142753) rotate(0 -1.9784852309417147 237.61538516129076)"><path d="M-0.12 -0.11 C-0.88 79.44, -3.56 397.13, -3.84 476.45 M-1.64 -1.22 C-2.09 78.06, -1.58 394.98, -1.65 474.71" stroke="#364fc7" stroke-width="4" fill="none"></path></g></g><mask></mask><g stroke-linecap="round"><g transform="translate(634.8571428571399 335.7142857142826) rotate(0 589.0707076097707 2.7132047139493807)"><path d="M-0.42 0.95 C196.05 1.74, 982.12 3.25, 1178.56 3.76 M1.56 0.4 C197.89 1.44, 981.65 4.23, 1177.61 5.03" stroke="#364fc7" stroke-width="4" fill="none"></path></g></g><mask></mask><g stroke-linecap="round"><g transform="translate(797.7142857142828 332.85714285713766) rotate(0 -73.68095681816874 -38.675162840794655)"><path d="M-0.67 0.02 C-25.17 -13.01, -123.25 -64.64, -147.93 -77.37 M1.18 -1.02 C-23.34 -13.93, -123.42 -63.07, -148.54 -75.95" stroke="#364fc7" stroke-width="4" fill="none"></path></g></g><mask></mask><g transform="translate(636.2857142857113 282.85714285713766) rotate(0 41.125 22.5)"><text x="0" y="0" font-family="Virgil, Segoe UI Emoji" font-size="36px" fill="#364fc7" text-anchor="start" style="white-space: pre;" direction="ltr" dominant-baseline="text-before-edge">coins</text></g><g transform="translate(1259.1428571428542 70) rotate(0 67.3375015258789 22.5)"><text x="0" y="0" font-family="Virgil, Segoe UI Emoji" font-size="36px" fill="#364fc7" text-anchor="start" style="white-space: pre;" direction="ltr" dominant-baseline="text-before-edge">2,3,5,10</text></g><g transform="translate(1120.5714285714248 75.71428571428987) rotate(0 70.2249984741211 22.5)"><text x="0" y="0" font-family="Virgil, Segoe UI Emoji" font-size="36px" fill="#364fc7" text-anchor="start" style="white-space: pre;" direction="ltr" dominant-baseline="text-before-edge">coins = </text></g><g transform="translate(1180.5714285714248 160) rotate(0 76.5 22.5)"><text x="0" y="0" font-family="Virgil, Segoe UI Emoji" font-size="36px" fill="#364fc7" text-anchor="start" style="white-space: pre;" direction="ltr" dominant-baseline="text-before-edge">sum = 15</text></g><g transform="translate(720.9285714285684 433.57142857142026) rotate(0 12.8125 22.5)"><text x="0" y="0" font-family="Virgil, Segoe UI Emoji" font-size="36px" fill="#364fc7" text-anchor="start" style="white-space: pre;" direction="ltr" dominant-baseline="text-before-edge">2</text></g><g transform="translate(722.4017857142821 508.2142857142753) rotate(0 12.262499809265137 22.5)"><text x="0" y="0" font-family="Virgil, Segoe UI Emoji" font-size="36px" fill="#364fc7" text-anchor="start" style="white-space: pre;" direction="ltr" dominant-baseline="text-before-edge">3</text></g><g transform="translate(719.5446428571395 589.6428571428551) rotate(0 11.125 22.5)"><text x="0" y="0" font-family="Virgil, Segoe UI Emoji" font-size="36px" fill="#364fc7" text-anchor="start" style="white-space: pre;" direction="ltr" dominant-baseline="text-before-edge">5</text></g><g transform="translate(716.6874999999966 663.9285714285725) rotate(0 17.262500762939453 22.5)"><text x="0" y="0" font-family="Virgil, Segoe UI Emoji" font-size="36px" fill="#364fc7" text-anchor="start" style="white-space: pre;" direction="ltr" dominant-baseline="text-before-edge">10</text></g><g stroke-linecap="round"><g transform="translate(863.4285714285681 281.4285714285652) rotate(0 0.9067355976385443 227.71570505751515)"><path d="M-0.95 0.94 C-0.83 76.75, 0.05 378.36, 0.53 453.77 M0.75 0.39 C1.26 76.45, 2.66 379.4, 2.77 455.04" stroke="#5c940d" stroke-width="4" fill="none"></path></g></g><mask></mask><g stroke-linecap="round"><g transform="translate(919.6646929737865 282.28429494247393) rotate(0 1.0051338580103675 225.0436028790391)"><path d="M1.19 0.84 C1.5 76, 1.49 375.23, 1.65 449.85 M0.36 0.23 C0.55 75.14, 0.58 373.15, 0.82 448.03" stroke="#5c940d" stroke-width="4" fill="none"></path></g></g><mask></mask><g stroke-linecap="round"><g transform="translate(976.807550116644 287.9985806567638) rotate(0 0.02417103557320388 225.85434188693034)"><path d="M-0.14 -0.79 C0.19 74.53, 1.28 376.01, 1.72 451.25 M-1.68 1.41 C-1.46 76.95, 0.27 377.51, 0.93 452.5" stroke="#5c940d" stroke-width="4" fill="none"></path></g></g><mask></mask><g stroke-linecap="round"><g transform="translate(1038.236121545215 286.57000922818406) rotate(0 2.0597686571202303 220.9208964808713)"><path d="M-0.54 0.39 C0.4 74.05, 4 367.45, 4.66 441.11 M1.38 -0.45 C2.32 73.44, 3.93 368.83, 4.09 442.29" stroke="#5c940d" stroke-width="4" fill="none"></path></g></g><mask></mask><g stroke-linecap="round"><g transform="translate(1093.9504072595012 283.7128663710464) rotate(0 2.127615331405991 223.83680515809465)"><path d="M0.16 0.74 C0.59 74.98, 2.51 371.77, 3.16 446.3 M-1.22 0.09 C-0.46 74.41, 4.7 373.23, 5.47 447.58" stroke="#5c940d" stroke-width="4" fill="none"></path></g></g><mask></mask><g stroke-linecap="round"><g transform="translate(1156.8075501166436 282.28429494246666) rotate(0 0.19049251396222644 221.40398659154016)"><path d="M0.74 -0.77 C0.75 72.87, 0.64 368, 0.94 441.95 M-0.32 1.45 C-0.59 75.28, -0.71 370.28, -0.26 443.57" stroke="#5c940d" stroke-width="4" fill="none"></path></g></g><mask></mask><g stroke-linecap="round"><g transform="translate(1213.950407259501 282.2842949424812) rotate(0 0.3713864599487806 222.58010773230853)"><path d="M-0.66 0.95 C-0.62 74.92, 1.01 370.98, 1.41 444.75 M1.19 0.41 C0.97 73.93, 0.46 368.85, 0.45 442.88" stroke="#5c940d" stroke-width="4" fill="none"></path></g></g><mask></mask><g stroke-linecap="round"><g transform="translate(1272.5218358309296 283.7128663710391) rotate(0 0.6661094707569646 222.51770444888825)"><path d="M-0.72 0.54 C-0.43 74.49, 1.79 370.06, 2.06 443.92 M1.1 -0.22 C1.26 73.88, 1.65 371.11, 1.44 445.26" stroke="#5c940d" stroke-width="4" fill="none"></path></g></g><mask></mask><g stroke-linecap="round"><g transform="translate(1332.5218358309298 285.14143779962615) rotate(0 0.9888945051415021 220.79271167873594)"><path d="M0.13 -0.98 C0.16 72.72, 0.49 367.68, 0.84 441.29 M-1.26 1.13 C-0.89 75.06, 2.73 369.19, 3.24 442.56" stroke="#5c940d" stroke-width="4" fill="none"></path></g></g><mask></mask><g stroke-linecap="round"><g transform="translate(1391.093264402358 282.28429494247393) rotate(0 0.6422882360537869 228.34860341270178)"><path d="M-0.54 0.55 C-0.12 76.34, 1.5 379.63, 1.83 455.85 M1.37 -0.2 C1.74 76.22, 1.21 380.85, 1.09 456.9" stroke="#5c940d" stroke-width="4" fill="none"></path></g></g><mask></mask><g stroke-linecap="round"><g transform="translate(1453.9504072595012 277.9985806567711) rotate(0 -0.39142034899987266 224.26801199509282)"><path d="M1.14 0.86 C0.76 75.4, -1.68 372.38, -1.93 446.76 M0.28 0.26 C0.24 75.06, 0.51 374.16, 0.34 448.28" stroke="#5c940d" stroke-width="4" fill="none"></path></g></g><mask></mask><g stroke-linecap="round"><g transform="translate(1513.9504072595007 275.1414377996334) rotate(0 2.183664403943567 224.27649735365412)"><path d="M1.2 -0.63 C1.81 74.1, 3.61 373.13, 4 448.21 M0.37 1.65 C0.8 76.51, 2.72 374.82, 3.09 449.18" stroke="#5c940d" stroke-width="4" fill="none"></path></g></g><mask></mask><g stroke-linecap="round"><g transform="translate(1589.6646929737867 276.5700092282059) rotate(0 1.1111403733438578 226.0241045389921)"><path d="M0.35 0.52 C0.28 75.75, 0.71 376.05, 0.78 451.12 M-0.93 -0.26 C-0.7 75.15, 3.05 376.97, 3.15 452.3" stroke="#5c940d" stroke-width="4" fill="none"></path></g></g><mask></mask><g stroke-linecap="round"><g transform="translate(1656.8075501166436 277.99858065677836) rotate(0 -0.8796051627678025 223.59437744204115)"><path d="M0.45 0.44 C0.4 74.87, -1.07 373.33, -1.2 447.56 M-0.77 -0.38 C-0.92 73.64, -2.23 371.34, -2.21 445.85" stroke="#5c940d" stroke-width="4" fill="none"></path></g></g><mask></mask><g stroke-linecap="round"><g transform="translate(1726.8075501166438 279.4271520853363) rotate(0 0.8733916610332813 219.6332409552706)"><path d="M0.46 -1.2 C0.79 72.24, 2.46 367.1, 2.51 440.46 M-0.76 0.79 C-0.54 73.93, 2.06 365.73, 2.13 438.96" stroke="#5c940d" stroke-width="4" fill="none"></path></g></g><mask></mask><g stroke-linecap="round"><g transform="translate(1795.3789786880725 276.57000922818406) rotate(0 1.0529447458227992 219.3430467175349)"><path d="M-1.03 -0.51 C-1.03 72.69, 0.17 365.77, 0.77 439.08 M0.63 -1.82 C0.96 71.58, 2.84 366.75, 3.13 440.51" stroke="#5c940d" stroke-width="4" fill="none"></path></g></g><mask></mask><g transform="translate(888.2857142857099 10) rotate(0 353.5 22.5)"><text x="0" y="0" font-family="Virgil, Segoe UI Emoji" font-size="36px" fill="#5c940d" text-anchor="start" style="white-space: pre;" direction="ltr" dominant-baseline="text-before-edge">Total number of ways to make the sum</text></g><g transform="translate(629.4285714285713 262.85714285714494) rotate(0 17.5 22.5)"><text x="0" y="0" font-family="Virgil, Segoe UI Emoji" font-size="36px" fill="#5c940d" text-anchor="start" style="white-space: pre;" direction="ltr" dominant-baseline="text-before-edge">(i)</text></g><g transform="translate(699.0714285714287 198.92857142857974) rotate(0 19.462499618530273 22.5)"><text x="0" y="0" font-family="Virgil, Segoe UI Emoji" font-size="36px" fill="#5c940d" text-anchor="start" style="white-space: pre;" direction="ltr" dominant-baseline="text-before-edge">(j)</text></g><g stroke-linecap="round"><g transform="translate(355.14285714285734 179.99999999999272) rotate(0 238.12552716003438 18.10641161790045)"><path d="M0.37 -1.02 C64.13 -9.73, 302.82 -67.98, 381.89 -52.46 C460.95 -36.94, 459.02 67.86, 474.76 92.1 M-0.9 1.06 C63.29 -8, 304.41 -69.7, 384.09 -54.37 C463.76 -39.04, 461.69 68.27, 477.15 93.02" stroke="#e67700" stroke-width="4" fill="none"></path></g><g transform="translate(355.14285714285734 179.99999999999272) rotate(0 238.12552716003438 18.10641161790045)"><path d="M457.57 67.31 C464.23 73.11, 466.63 81.51, 477.29 92.56 M460.24 69.57 C464.1 76.48, 470.14 82.97, 476.92 93.34" stroke="#e67700" stroke-width="4" fill="none"></path></g><g transform="translate(355.14285714285734 179.99999999999272) rotate(0 238.12552716003438 18.10641161790045)"><path d="M477.24 61.45 C479.12 68.74, 476.75 78.55, 477.29 92.56 M479.91 63.71 C477.85 72.22, 478.02 80.46, 476.92 93.34" stroke="#e67700" stroke-width="4" fill="none"></path></g></g><mask></mask><g transform="translate(10 175.7142857142826) rotate(0 334.5375061035156 135)"><text x="0" y="0" font-family="Virgil, Segoe UI Emoji" font-size="36px" fill="#e67700" text-anchor="start" style="white-space: pre;" direction="ltr" dominant-baseline="text-before-edge">There is one way</text><text x="0" y="45" font-family="Virgil, Segoe UI Emoji" font-size="36px" fill="#e67700" text-anchor="start" style="white-space: pre;" direction="ltr" dominant-baseline="text-before-edge">of making 0 sum with a coin</text><text x="0" y="90" font-family="Virgil, Segoe UI Emoji" font-size="36px" fill="#e67700" text-anchor="start" style="white-space: pre;" direction="ltr" dominant-baseline="text-before-edge">ie, dont take any coin,</text><text x="0" y="135" font-family="Virgil, Segoe UI Emoji" font-size="36px" fill="#e67700" text-anchor="start" style="white-space: pre;" direction="ltr" dominant-baseline="text-before-edge">ie, () is the ans</text><text x="0" y="180" font-family="Virgil, Segoe UI Emoji" font-size="36px" fill="#e67700" text-anchor="start" style="white-space: pre;" direction="ltr" dominant-baseline="text-before-edge"></text><text x="0" y="225" font-family="Virgil, Segoe UI Emoji" font-size="36px" fill="#e67700" text-anchor="start" style="white-space: pre;" direction="ltr" dominant-baseline="text-before-edge">Sum 0 is possible when no coins taken</text></g><g transform="translate(820.3571428571438 433.85714285713766) rotate(0 4.875 22.5)"><text x="0" y="0" font-family="Virgil, Segoe UI Emoji" font-size="36px" fill="#000000" text-anchor="start" style="white-space: pre;" direction="ltr" dominant-baseline="text-before-edge">1</text></g><g transform="translate(819.767857142858 497.07142857142753) rotate(0 4.875 22.5)"><text x="0" y="0" font-family="Virgil, Segoe UI Emoji" font-size="36px" fill="#c92a2a" text-anchor="start" style="white-space: pre;" direction="ltr" dominant-baseline="text-before-edge">1</text></g><g transform="translate(877.7678571428551 435.6428571428478) rotate(0 12.387499809265137 22.5)"><text x="0" y="0" font-family="Virgil, Segoe UI Emoji" font-size="36px" fill="#000000" text-anchor="start" style="white-space: pre;" direction="ltr" dominant-baseline="text-before-edge">0</text></g><g transform="translate(944.910714285712 428.4999999999927) rotate(0 4.875 22.5)"><text x="0" y="0" font-family="Virgil, Segoe UI Emoji" font-size="36px" fill="#000000" text-anchor="start" style="white-space: pre;" direction="ltr" dominant-baseline="text-before-edge">1</text></g><g transform="translate(1056.3392857142837 431.35714285713766) rotate(0 4.875 22.5)"><text x="0" y="0" font-family="Virgil, Segoe UI Emoji" font-size="36px" fill="#000000" text-anchor="start" style="white-space: pre;" direction="ltr" dominant-baseline="text-before-edge">1</text></g><g transform="translate(1179.1964285714264 427.071428571413) rotate(0 4.875 22.5)"><text x="0" y="0" font-family="Virgil, Segoe UI Emoji" font-size="36px" fill="#000000" text-anchor="start" style="white-space: pre;" direction="ltr" dominant-baseline="text-before-edge">1</text></g><g transform="translate(1287.7678571428553 422.78571428570285) rotate(0 4.875 22.5)"><text x="0" y="0" font-family="Virgil, Segoe UI Emoji" font-size="36px" fill="#000000" text-anchor="start" style="white-space: pre;" direction="ltr" dominant-baseline="text-before-edge">1</text></g><g transform="translate(1410.6249999999975 422.78571428570285) rotate(0 4.875 22.5)"><text x="0" y="0" font-family="Virgil, Segoe UI Emoji" font-size="36px" fill="#000000" text-anchor="start" style="white-space: pre;" direction="ltr" dominant-baseline="text-before-edge">1</text></g><g transform="translate(1539.1964285714264 425.6428571428478) rotate(0 4.875 22.5)"><text x="0" y="0" font-family="Virgil, Segoe UI Emoji" font-size="36px" fill="#000000" text-anchor="start" style="white-space: pre;" direction="ltr" dominant-baseline="text-before-edge">1</text></g><g transform="translate(1682.053571428569 414.21428571426804) rotate(0 4.875 22.5)"><text x="0" y="0" font-family="Virgil, Segoe UI Emoji" font-size="36px" fill="#000000" text-anchor="start" style="white-space: pre;" direction="ltr" dominant-baseline="text-before-edge">1</text></g><g stroke-linecap="round"><g transform="translate(706.9285714285693 488.1428571428478) rotate(0 552.6303049326475 -1.1220247431010648)"><path d="M-0.84 0.15 C183.33 -0.2, 921.7 -1.88, 1106.1 -2.4" stroke="#000000" stroke-width="4.5" fill="none" stroke-dasharray="1.5 10"></path></g></g><mask></mask><g stroke-linecap="round"><g transform="translate(707.1554093530651 573.5505961716626) rotate(0 552.5318086632128 -2.4354466250442783)"><path d="M0.03 -0.98 C184.19 -1.61, 920.8 -3.72, 1105.04 -3.89" stroke="#000000" stroke-width="4.5" fill="none" stroke-dasharray="1.5 10"></path></g></g><mask></mask><g stroke-linecap="round"><g transform="translate(704.298266495922 646.4077390288003) rotate(0 552.400753939205 -0.9780292077266495)"><path d="M-0.63 0.6 C183.58 0.05, 921.22 -1.9, 1105.44 -2.55" stroke="#000000" stroke-width="4.5" fill="none" stroke-dasharray="1.5 10"></path></g></g><mask></mask><g stroke-linecap="round"><g transform="translate(701.4411236387784 720.6934533145177) rotate(0 553.4313041687544 -1.287898628252151)"><path d="M0.53 -0.37 C184.73 -0.81, 921.97 -1.77, 1106.33 -2.21" stroke="#000000" stroke-width="4.5" fill="none" stroke-dasharray="1.5 10"></path></g></g><mask></mask><g transform="translate(884.3571428571415 493.8571428571304) rotate(0 7.275000095367432 13.214285714286234)"><text x="0" y="0" font-family="Virgil, Segoe UI Emoji" font-size="21.142857142858478px" fill="#000000" text-anchor="start" style="white-space: pre;" direction="ltr" dominant-baseline="text-before-edge">0</text></g><g transform="translate(882.9285714285702 509.57142857142026) rotate(0 8.75 17.5)"><text x="0" y="0" font-family="Virgil, Segoe UI Emoji" font-size="28.000000000000004px" fill="#000000" text-anchor="start" style="white-space: pre;" direction="ltr" dominant-baseline="text-before-edge">+</text></g><g transform="translate(884.3571428571415 536.8310510863084) rotate(0 8.8125 16.013045885414613)"><text x="0" y="0" font-family="Virgil, Segoe UI Emoji" font-size="25.620873416662494px" fill="#c92a2a" text-anchor="start" style="white-space: pre;" direction="ltr" dominant-baseline="text-before-edge">0</text></g><g transform="translate(940.5410716193053 490.6428571428405) rotate(0 2.862499952316284 13.214285714286234)"><text x="0" y="0" font-family="Virgil, Segoe UI Emoji" font-size="21.142857142858478px" fill="#000000" text-anchor="start" style="white-space: pre;" direction="ltr" dominant-baseline="text-before-edge">1</text></g><g transform="translate(933.3982144764482 504.9285714285652) rotate(0 8.75 17.5)"><text x="0" y="0" font-family="Virgil, Segoe UI Emoji" font-size="28.000000000000004px" fill="#000000" text-anchor="start" style="white-space: pre;" direction="ltr" dominant-baseline="text-before-edge">+</text></g><g transform="translate(934.8267859050197 532.1881939434534) rotate(0 8.8125 16.013045885414613)"><text x="0" y="0" font-family="Virgil, Segoe UI Emoji" font-size="25.620873416662494px" fill="#c92a2a" text-anchor="start" style="white-space: pre;" direction="ltr" dominant-baseline="text-before-edge">0</text></g><g transform="translate(999.1125001907335 490.6428571428478) rotate(0 7.275000095367432 13.214285714286234)"><text x="0" y="0" font-family="Virgil, Segoe UI Emoji" font-size="21.142857142858478px" fill="#000000" text-anchor="start" style="white-space: pre;" direction="ltr" dominant-baseline="text-before-edge">0</text></g><g transform="translate(997.6839287621624 506.35714285713766) rotate(0 8.75 17.5)"><text x="0" y="0" font-family="Virgil, Segoe UI Emoji" font-size="28.000000000000004px" fill="#000000" text-anchor="start" style="white-space: pre;" direction="ltr" dominant-baseline="text-before-edge">+</text></g><g transform="translate(999.1125001907335 533.6167653720258) rotate(0 3.4749999046325684 16.013045885414613)"><text x="0" y="0" font-family="Virgil, Segoe UI Emoji" font-size="25.620873416662494px" fill="#c92a2a" text-anchor="start" style="white-space: pre;" direction="ltr" dominant-baseline="text-before-edge">1</text></g><g transform="translate(994.8267859050195 428.49999999998545) rotate(0 12.387499809265137 22.5)"><text x="0" y="0" font-family="Virgil, Segoe UI Emoji" font-size="36px" fill="#000000" text-anchor="start" style="white-space: pre;" direction="ltr" dominant-baseline="text-before-edge">0</text></g><g transform="translate(1110.5410716193053 431.3571428571304) rotate(0 12.387499809265137 22.5)"><text x="0" y="0" font-family="Virgil, Segoe UI Emoji" font-size="36px" fill="#000000" text-anchor="start" style="white-space: pre;" direction="ltr" dominant-baseline="text-before-edge">0</text></g><g transform="translate(1229.1125001907337 424.2142857142753) rotate(0 12.387499809265137 22.5)"><text x="0" y="0" font-family="Virgil, Segoe UI Emoji" font-size="36px" fill="#000000" text-anchor="start" style="white-space: pre;" direction="ltr" dominant-baseline="text-before-edge">0</text></g><g transform="translate(1349.1125001907337 424.2142857142753) rotate(0 12.387499809265137 22.5)"><text x="0" y="0" font-family="Virgil, Segoe UI Emoji" font-size="36px" fill="#000000" text-anchor="start" style="white-space: pre;" direction="ltr" dominant-baseline="text-before-edge">0</text></g><g transform="translate(1473.3982144764482 422.7857142857101) rotate(0 12.387499809265137 22.5)"><text x="0" y="0" font-family="Virgil, Segoe UI Emoji" font-size="36px" fill="#000000" text-anchor="start" style="white-space: pre;" direction="ltr" dominant-baseline="text-before-edge">0</text></g><g transform="translate(1607.6839287621622 422.7857142857101) rotate(0 12.387499809265137 22.5)"><text x="0" y="0" font-family="Virgil, Segoe UI Emoji" font-size="36px" fill="#000000" text-anchor="start" style="white-space: pre;" direction="ltr" dominant-baseline="text-before-edge">0</text></g><g transform="translate(1737.6839287621622 419.9285714285652) rotate(0 12.387499809265137 22.5)"><text x="0" y="0" font-family="Virgil, Segoe UI Emoji" font-size="36px" fill="#000000" text-anchor="start" style="white-space: pre;" direction="ltr" dominant-baseline="text-before-edge">0</text></g><g transform="translate(1058.4642857142842 492.0714285714057) rotate(0 2.862499952316284 13.214285714286234)"><text x="0" y="0" font-family="Virgil, Segoe UI Emoji" font-size="21.142857142858478px" fill="#000000" text-anchor="start" style="white-space: pre;" direction="ltr" dominant-baseline="text-before-edge">1</text></g><g transform="translate(1057.035714285713 507.7857142856956) rotate(0 8.75 17.5)"><text x="0" y="0" font-family="Virgil, Segoe UI Emoji" font-size="28.000000000000004px" fill="#000000" text-anchor="start" style="white-space: pre;" direction="ltr" dominant-baseline="text-before-edge">+</text></g><g transform="translate(1058.4642857142842 535.0453368005838) rotate(0 8.8125 16.013045885414613)"><text x="0" y="0" font-family="Virgil, Segoe UI Emoji" font-size="25.620873416662494px" fill="#c92a2a" text-anchor="start" style="white-space: pre;" direction="ltr" dominant-baseline="text-before-edge">0</text></g><g transform="translate(1117.0357142857124 492.071428571413) rotate(0 7.275000095367432 13.214285714286234)"><text x="0" y="0" font-family="Virgil, Segoe UI Emoji" font-size="21.142857142858478px" fill="#000000" text-anchor="start" style="white-space: pre;" direction="ltr" dominant-baseline="text-before-edge">0</text></g><g transform="translate(1115.6071428571418 507.78571428570285) rotate(0 8.75 17.5)"><text x="0" y="0" font-family="Virgil, Segoe UI Emoji" font-size="28.000000000000004px" fill="#000000" text-anchor="start" style="white-space: pre;" direction="ltr" dominant-baseline="text-before-edge">+</text></g><g transform="translate(1117.0357142857124 535.045336800591) rotate(0 3.4749999046325684 16.013045885414613)"><text x="0" y="0" font-family="Virgil, Segoe UI Emoji" font-size="25.620873416662494px" fill="#c92a2a" text-anchor="start" style="white-space: pre;" direction="ltr" dominant-baseline="text-before-edge">1</text></g><g transform="translate(1170.0714285714275 509.571428571413) rotate(0 12.8125 22.5)"><text x="0" y="0" font-family="Virgil, Segoe UI Emoji" font-size="36px" fill="#c92a2a" text-anchor="start" style="white-space: pre;" direction="ltr" dominant-baseline="text-before-edge">2</text></g><g transform="translate(1238.642857142856 509.57142857142026) rotate(0 4.875 22.5)"><text x="0" y="0" font-family="Virgil, Segoe UI Emoji" font-size="36px" fill="#c92a2a" text-anchor="start" style="white-space: pre;" direction="ltr" dominant-baseline="text-before-edge">1</text></g><g transform="translate(1285.785714285713 510.9999999999927) rotate(0 12.8125 22.5)"><text x="0" y="0" font-family="Virgil, Segoe UI Emoji" font-size="36px" fill="#c92a2a" text-anchor="start" style="white-space: pre;" direction="ltr" dominant-baseline="text-before-edge">2</text></g><g transform="translate(1350.1160714285704 507.07142857142026) rotate(0 12.8125 22.5)"><text x="0" y="0" font-family="Virgil, Segoe UI Emoji" font-size="36px" fill="#c92a2a" text-anchor="start" style="white-space: pre;" direction="ltr" dominant-baseline="text-before-edge">2</text></g><g transform="translate(1408.6874999999989 505.6428571428478) rotate(0 12.8125 22.5)"><text x="0" y="0" font-family="Virgil, Segoe UI Emoji" font-size="36px" fill="#c92a2a" text-anchor="start" style="white-space: pre;" direction="ltr" dominant-baseline="text-before-edge">2</text></g><g transform="translate(1467.2589285714273 507.071428571413) rotate(0 12.8125 22.5)"><text x="0" y="0" font-family="Virgil, Segoe UI Emoji" font-size="36px" fill="#c92a2a" text-anchor="start" style="white-space: pre;" direction="ltr" dominant-baseline="text-before-edge">2</text></g><g transform="translate(1537.2142857142846 502.4285714285579) rotate(0 12.262499809265137 22.5)"><text x="0" y="0" font-family="Virgil, Segoe UI Emoji" font-size="36px" fill="#c92a2a" text-anchor="start" style="white-space: pre;" direction="ltr" dominant-baseline="text-before-edge">3</text></g><g transform="translate(1605.7857142857133 502.4285714285579) rotate(0 12.8125 22.5)"><text x="0" y="0" font-family="Virgil, Segoe UI Emoji" font-size="36px" fill="#c92a2a" text-anchor="start" style="white-space: pre;" direction="ltr" dominant-baseline="text-before-edge">2</text></g><g transform="translate(1678.642857142856 505.28571428570285) rotate(0 12.262499809265137 22.5)"><text x="0" y="0" font-family="Virgil, Segoe UI Emoji" font-size="36px" fill="#c92a2a" text-anchor="start" style="white-space: pre;" direction="ltr" dominant-baseline="text-before-edge">3</text></g><g transform="translate(1744.9517859050195 498.4999999999927) rotate(0 12.262499809265137 22.5)"><text x="0" y="0" font-family="Virgil, Segoe UI Emoji" font-size="36px" fill="#862e9c" text-anchor="start" style="white-space: pre;" direction="ltr" dominant-baseline="text-before-edge">3</text></g><g transform="translate(880.0714285714275 589.5714285714203) rotate(0 12.387499809265137 22.5)"><text x="0" y="0" font-family="Virgil, Segoe UI Emoji" font-size="36px" fill="#862e9c" text-anchor="start" style="white-space: pre;" direction="ltr" dominant-baseline="text-before-edge">0</text></g><g transform="translate(822.9285714285706 590.9999999999927) rotate(0 4.875 22.5)"><text x="0" y="0" font-family="Virgil, Segoe UI Emoji" font-size="36px" fill="#862e9c" text-anchor="start" style="white-space: pre;" direction="ltr" dominant-baseline="text-before-edge">1</text></g><g transform="translate(936.6249999999991 585.6428571428478) rotate(0 4.875 22.5)"><text x="0" y="0" font-family="Virgil, Segoe UI Emoji" font-size="36px" fill="#862e9c" text-anchor="start" style="white-space: pre;" direction="ltr" dominant-baseline="text-before-edge">1</text></g><g transform="translate(1003.767857142856 591.3571428571231) rotate(0 4.875 22.5)"><text x="0" y="0" font-family="Virgil, Segoe UI Emoji" font-size="36px" fill="#862e9c" text-anchor="start" style="white-space: pre;" direction="ltr" dominant-baseline="text-before-edge">1</text></g><g transform="translate(1060.9107142857133 587.0714285714203) rotate(0 4.875 22.5)"><text x="0" y="0" font-family="Virgil, Segoe UI Emoji" font-size="36px" fill="#862e9c" text-anchor="start" style="white-space: pre;" direction="ltr" dominant-baseline="text-before-edge">1</text></g><g transform="translate(1108.6428571428562 588.1428571428478) rotate(0 12.8125 22.5)"><text x="0" y="0" font-family="Virgil, Segoe UI Emoji" font-size="36px" fill="#862e9c" text-anchor="start" style="white-space: pre;" direction="ltr" dominant-baseline="text-before-edge">2</text></g><g transform="translate(1175.7857142857133 585.2857142857029) rotate(0 12.8125 22.5)"><text x="0" y="0" font-family="Virgil, Segoe UI Emoji" font-size="36px" fill="#862e9c" text-anchor="start" style="white-space: pre;" direction="ltr" dominant-baseline="text-before-edge">2</text></g><g transform="translate(1228.642857142856 588.1428571428478) rotate(0 12.8125 22.5)"><text x="0" y="0" font-family="Virgil, Segoe UI Emoji" font-size="36px" fill="#862e9c" text-anchor="start" style="white-space: pre;" direction="ltr" dominant-baseline="text-before-edge">2</text></g><g transform="translate(1291.4999999999989 585.2857142857029) rotate(0 12.262499809265137 22.5)"><text x="0" y="0" font-family="Virgil, Segoe UI Emoji" font-size="36px" fill="#862e9c" text-anchor="start" style="white-space: pre;" direction="ltr" dominant-baseline="text-before-edge">3</text></g><g transform="translate(1350.6660716193053 584.2142857142753) rotate(0 12.262499809265137 22.5)"><text x="0" y="0" font-family="Virgil, Segoe UI Emoji" font-size="36px" fill="#862e9c" text-anchor="start" style="white-space: pre;" direction="ltr" dominant-baseline="text-before-edge">3</text></g><g transform="translate(1410.0714285714273 589.5714285714203) rotate(0 11.524999618530273 22.5)"><text x="0" y="0" font-family="Virgil, Segoe UI Emoji" font-size="36px" fill="#862e9c" text-anchor="start" style="white-space: pre;" direction="ltr" dominant-baseline="text-before-edge">4</text></g><g transform="translate(1471.40357181004 591.3571428571449) rotate(0 11.524999618530273 22.5)"><text x="0" y="0" font-family="Virgil, Segoe UI Emoji" font-size="36px" fill="#862e9c" text-anchor="start" style="white-space: pre;" direction="ltr" dominant-baseline="text-before-edge">4</text></g><g transform="translate(1537.2142857142846 589.571428571413) rotate(0 11.125 22.5)"><text x="0" y="0" font-family="Virgil, Segoe UI Emoji" font-size="36px" fill="#862e9c" text-anchor="start" style="white-space: pre;" direction="ltr" dominant-baseline="text-before-edge">5</text></g><g transform="translate(1610.374999999999 585.6428571428478) rotate(0 11.125 22.5)"><text x="0" y="0" font-family="Virgil, Segoe UI Emoji" font-size="36px" fill="#862e9c" text-anchor="start" style="white-space: pre;" direction="ltr" dominant-baseline="text-before-edge">5</text></g><g transform="translate(1678.642857142856 588.1428571428478) rotate(0 11.524999618530273 22.5)"><text x="0" y="0" font-family="Virgil, Segoe UI Emoji" font-size="36px" fill="#862e9c" text-anchor="start" style="white-space: pre;" direction="ltr" dominant-baseline="text-before-edge">6</text></g><g transform="translate(1751.4999999999989 588.1428571428478) rotate(0 9.6875 22.5)"><text x="0" y="0" font-family="Virgil, Segoe UI Emoji" font-size="36px" fill="#862e9c" text-anchor="start" style="white-space: pre;" direction="ltr" dominant-baseline="text-before-edge">7</text></g><g transform="translate(825.7857142857131 662.4285714285652) rotate(0 4.875 22.5)"><text x="0" y="0" font-family="Virgil, Segoe UI Emoji" font-size="36px" fill="#e67700" text-anchor="start" style="white-space: pre;" direction="ltr" dominant-baseline="text-before-edge">1</text></g><g transform="translate(880.0714285714275 660.9999999999854) rotate(0 12.387499809265137 22.5)"><text x="0" y="0" font-family="Virgil, Segoe UI Emoji" font-size="36px" fill="#e67700" text-anchor="start" style="white-space: pre;" direction="ltr" dominant-baseline="text-before-edge">0</text></g><g transform="translate(938.642857142856 660.9999999999854) rotate(0 4.875 22.5)"><text x="0" y="0" font-family="Virgil, Segoe UI Emoji" font-size="36px" fill="#e67700" text-anchor="start" style="white-space: pre;" direction="ltr" dominant-baseline="text-before-edge">1</text></g><g transform="translate(998.6428571428557 663.8571428571304) rotate(0 4.875 22.5)"><text x="0" y="0" font-family="Virgil, Segoe UI Emoji" font-size="36px" fill="#e67700" text-anchor="start" style="white-space: pre;" direction="ltr" dominant-baseline="text-before-edge">1</text></g><g transform="translate(1058.642857142856 663.8571428571377) rotate(0 4.875 22.5)"><text x="0" y="0" font-family="Virgil, Segoe UI Emoji" font-size="36px" fill="#e67700" text-anchor="start" style="white-space: pre;" direction="ltr" dominant-baseline="text-before-edge">1</text></g><g transform="translate(1115.785714285713 666.7142857142826) rotate(0 12.8125 22.5)"><text x="0" y="0" font-family="Virgil, Segoe UI Emoji" font-size="36px" fill="#e67700" text-anchor="start" style="white-space: pre;" direction="ltr" dominant-baseline="text-before-edge">2</text></g><g transform="translate(1170.0714285714275 666.7142857142826) rotate(0 12.8125 22.5)"><text x="0" y="0" font-family="Virgil, Segoe UI Emoji" font-size="36px" fill="#e67700" text-anchor="start" style="white-space: pre;" direction="ltr" dominant-baseline="text-before-edge">2</text></g><g transform="translate(1230.0714285714275 669.571428571413) rotate(0 12.8125 22.5)"><text x="0" y="0" font-family="Virgil, Segoe UI Emoji" font-size="36px" fill="#e67700" text-anchor="start" style="white-space: pre;" direction="ltr" dominant-baseline="text-before-edge">2</text></g><g transform="translate(1292.9285714285704 669.5714285714203) rotate(0 12.262499809265137 22.5)"><text x="0" y="0" font-family="Virgil, Segoe UI Emoji" font-size="36px" fill="#e67700" text-anchor="start" style="white-space: pre;" direction="ltr" dominant-baseline="text-before-edge">3</text></g><g transform="translate(1354.3571428571418 668.1428571428405) rotate(0 12.262499809265137 22.5)"><text x="0" y="0" font-family="Virgil, Segoe UI Emoji" font-size="36px" fill="#e67700" text-anchor="start" style="white-space: pre;" direction="ltr" dominant-baseline="text-before-edge">3</text></g><g transform="translate(1410.0714285714273 663.8571428571377) rotate(0 11.125 22.5)"><text x="0" y="0" font-family="Virgil, Segoe UI Emoji" font-size="36px" fill="#e67700" text-anchor="start" style="white-space: pre;" direction="ltr" dominant-baseline="text-before-edge">5</text></g><g transform="translate(1470.0714285714273 670.9999999999927) rotate(0 11.524999618530273 22.5)"><text x="0" y="0" font-family="Virgil, Segoe UI Emoji" font-size="36px" fill="#e67700" text-anchor="start" style="white-space: pre;" direction="ltr" dominant-baseline="text-before-edge">4</text></g><g transform="translate(1535.785714285713 669.571428571413) rotate(0 11.524999618530273 22.5)"><text x="0" y="0" font-family="Virgil, Segoe UI Emoji" font-size="36px" fill="#e67700" text-anchor="start" style="white-space: pre;" direction="ltr" dominant-baseline="text-before-edge">6</text></g><g transform="translate(1610.0714285714273 668.1428571428478) rotate(0 11.524999618530273 22.5)"><text x="0" y="0" font-family="Virgil, Segoe UI Emoji" font-size="36px" fill="#e67700" text-anchor="start" style="white-space: pre;" direction="ltr" dominant-baseline="text-before-edge">6</text></g><g transform="translate(1681.499999999999 672.4285714285579) rotate(0 9.6875 22.5)"><text x="0" y="0" font-family="Virgil, Segoe UI Emoji" font-size="36px" fill="#e67700" text-anchor="start" style="white-space: pre;" direction="ltr" dominant-baseline="text-before-edge">7</text></g><g transform="translate(1751.4999999999989 670.9999999999927) rotate(0 10.962499618530273 22.5)"><text x="0" y="0" font-family="Virgil, Segoe UI Emoji" font-size="36px" fill="#e67700" text-anchor="start" style="white-space: pre;" direction="ltr" dominant-baseline="text-before-edge">9</text></g><g stroke-linecap="round"><g transform="translate(706.4087629892847 416.4545699848459) rotate(0 552.6587695014265 -1.1088252181471034)"><path d="M-0.3 -0.17 C184.13 -0.61, 921.24 -1.7, 1105.62 -2.04" stroke="#000000" stroke-width="4.5" fill="none" stroke-dasharray="1.5 10"></path></g></g><mask></mask><g transform="translate(727.3400671580393 355.16667135658645) rotate(0 12.387499809265137 22.5)"><text x="0" y="0" font-family="Virgil, Segoe UI Emoji" font-size="36px" fill="#364fc7" text-anchor="start" style="white-space: pre;" direction="ltr" dominant-baseline="text-before-edge">0</text></g><g transform="translate(822.4525673487742 357.66667135658645) rotate(0 4.875 22.5)"><text x="0" y="0" font-family="Virgil, Segoe UI Emoji" font-size="36px" fill="#364fc7" text-anchor="start" style="white-space: pre;" direction="ltr" dominant-baseline="text-before-edge">1</text></g><g transform="translate(879.9525673487742 352.66667135658645) rotate(0 12.387499809265137 22.5)"><text x="0" y="0" font-family="Virgil, Segoe UI Emoji" font-size="36px" fill="#364fc7" text-anchor="start" style="white-space: pre;" direction="ltr" dominant-baseline="text-before-edge">0</text></g><g transform="translate(929.9525673487742 355.16667135658645) rotate(0 12.387499809265137 22.5)"><text x="0" y="0" font-family="Virgil, Segoe UI Emoji" font-size="36px" fill="#364fc7" text-anchor="start" style="white-space: pre;" direction="ltr" dominant-baseline="text-before-edge">0</text></g><g transform="translate(989.9525673487742 357.66667135658645) rotate(0 12.387499809265137 22.5)"><text x="0" y="0" font-family="Virgil, Segoe UI Emoji" font-size="36px" fill="#364fc7" text-anchor="start" style="white-space: pre;" direction="ltr" dominant-baseline="text-before-edge">0</text></g><g transform="translate(1052.4525673487742 352.66667135658645) rotate(0 12.387499809265137 22.5)"><text x="0" y="0" font-family="Virgil, Segoe UI Emoji" font-size="36px" fill="#364fc7" text-anchor="start" style="white-space: pre;" direction="ltr" dominant-baseline="text-before-edge">0</text></g><g transform="translate(1109.9525673487742 355.16667135658645) rotate(0 12.387499809265137 22.5)"><text x="0" y="0" font-family="Virgil, Segoe UI Emoji" font-size="36px" fill="#364fc7" text-anchor="start" style="white-space: pre;" direction="ltr" dominant-baseline="text-before-edge">0</text></g><g transform="translate(1169.9525673487742 357.66667135658645) rotate(0 12.387499809265137 22.5)"><text x="0" y="0" font-family="Virgil, Segoe UI Emoji" font-size="36px" fill="#364fc7" text-anchor="start" style="white-space: pre;" direction="ltr" dominant-baseline="text-before-edge">0</text></g><g transform="translate(1229.9525673487742 357.66667135658645) rotate(0 12.387499809265137 22.5)"><text x="0" y="0" font-family="Virgil, Segoe UI Emoji" font-size="36px" fill="#364fc7" text-anchor="start" style="white-space: pre;" direction="ltr" dominant-baseline="text-before-edge">0</text></g><g transform="translate(1289.9525673487742 357.66667135658645) rotate(0 12.387499809265137 22.5)"><text x="0" y="0" font-family="Virgil, Segoe UI Emoji" font-size="36px" fill="#364fc7" text-anchor="start" style="white-space: pre;" direction="ltr" dominant-baseline="text-before-edge">0</text></g><g transform="translate(1347.4525673487742 355.16667135658645) rotate(0 12.387499809265137 22.5)"><text x="0" y="0" font-family="Virgil, Segoe UI Emoji" font-size="36px" fill="#364fc7" text-anchor="start" style="white-space: pre;" direction="ltr" dominant-baseline="text-before-edge">0</text></g><g transform="translate(1404.9525673487742 352.66667135658645) rotate(0 12.387499809265137 22.5)"><text x="0" y="0" font-family="Virgil, Segoe UI Emoji" font-size="36px" fill="#364fc7" text-anchor="start" style="white-space: pre;" direction="ltr" dominant-baseline="text-before-edge">0</text></g><g transform="translate(1464.9525673487742 357.66667135658645) rotate(0 12.387499809265137 22.5)"><text x="0" y="0" font-family="Virgil, Segoe UI Emoji" font-size="36px" fill="#364fc7" text-anchor="start" style="white-space: pre;" direction="ltr" dominant-baseline="text-before-edge">0</text></g><g transform="translate(1534.9525673487742 355.16667135658645) rotate(0 12.387499809265137 22.5)"><text x="0" y="0" font-family="Virgil, Segoe UI Emoji" font-size="36px" fill="#364fc7" text-anchor="start" style="white-space: pre;" direction="ltr" dominant-baseline="text-before-edge">0</text></g><g transform="translate(1604.9525673487742 357.66667135658645) rotate(0 12.387499809265137 22.5)"><text x="0" y="0" font-family="Virgil, Segoe UI Emoji" font-size="36px" fill="#364fc7" text-anchor="start" style="white-space: pre;" direction="ltr" dominant-baseline="text-before-edge">0</text></g><g transform="translate(1669.9525673487742 357.66667135658645) rotate(0 12.387499809265137 22.5)"><text x="0" y="0" font-family="Virgil, Segoe UI Emoji" font-size="36px" fill="#364fc7" text-anchor="start" style="white-space: pre;" direction="ltr" dominant-baseline="text-before-edge">0</text></g><g transform="translate(1742.4525673487742 355.16667135658645) rotate(0 12.387499809265137 22.5)"><text x="0" y="0" font-family="Virgil, Segoe UI Emoji" font-size="36px" fill="#364fc7" text-anchor="start" style="white-space: pre;" direction="ltr" dominant-baseline="text-before-edge">0</text></g><g transform="translate(812.8692340154403 275.8333380232434) rotate(0 12.387499809265137 22.5)"><text x="0" y="0" font-family="Virgil, Segoe UI Emoji" font-size="36px" fill="#364fc7" text-anchor="start" style="white-space: pre;" direction="ltr" dominant-baseline="text-before-edge">0</text></g><g transform="translate(890.3817338247054 280.8333380232434) rotate(0 4.875 22.5)"><text x="0" y="0" font-family="Virgil, Segoe UI Emoji" font-size="36px" fill="#364fc7" text-anchor="start" style="white-space: pre;" direction="ltr" dominant-baseline="text-before-edge">1</text></g><g transform="translate(937.4442338247054 280.8333380232507) rotate(0 12.8125 22.5)"><text x="0" y="0" font-family="Virgil, Segoe UI Emoji" font-size="36px" fill="#364fc7" text-anchor="start" style="white-space: pre;" direction="ltr" dominant-baseline="text-before-edge">2</text></g><g transform="translate(992.9942340154403 278.3333380232507) rotate(0 12.262499809265137 22.5)"><text x="0" y="0" font-family="Virgil, Segoe UI Emoji" font-size="36px" fill="#364fc7" text-anchor="start" style="white-space: pre;" direction="ltr" dominant-baseline="text-before-edge">3</text></g><g transform="translate(1111.6317338247054 280.8333380232507) rotate(0 11.125 22.5)"><text x="0" y="0" font-family="Virgil, Segoe UI Emoji" font-size="36px" fill="#364fc7" text-anchor="start" style="white-space: pre;" direction="ltr" dominant-baseline="text-before-edge">5</text></g><g transform="translate(1056.2317342061751 280.8333380232507) rotate(0 11.524999618530273 22.5)"><text x="0" y="0" font-family="Virgil, Segoe UI Emoji" font-size="36px" fill="#364fc7" text-anchor="start" style="white-space: pre;" direction="ltr" dominant-baseline="text-before-edge">4</text></g><g transform="translate(1181.2317342061751 285.8333380232507) rotate(0 11.524999618530273 22.5)"><text x="0" y="0" font-family="Virgil, Segoe UI Emoji" font-size="36px" fill="#364fc7" text-anchor="start" style="white-space: pre;" direction="ltr" dominant-baseline="text-before-edge">6</text></g><g transform="translate(1230.5692338247054 283.3333380232507) rotate(0 9.6875 22.5)"><text x="0" y="0" font-family="Virgil, Segoe UI Emoji" font-size="36px" fill="#364fc7" text-anchor="start" style="white-space: pre;" direction="ltr" dominant-baseline="text-before-edge">7</text></g><g transform="translate(1286.4817342061751 288.3333380232507) rotate(0 13.774999618530273 22.5)"><text x="0" y="0" font-family="Virgil, Segoe UI Emoji" font-size="36px" fill="#364fc7" text-anchor="start" style="white-space: pre;" direction="ltr" dominant-baseline="text-before-edge">8</text></g><g transform="translate(1344.2942342061751 283.3333380232507) rotate(0 10.962499618530273 22.5)"><text x="0" y="0" font-family="Virgil, Segoe UI Emoji" font-size="36px" fill="#364fc7" text-anchor="start" style="white-space: pre;" direction="ltr" dominant-baseline="text-before-edge">9</text></g><g transform="translate(1405.494233061766 285.8333380232507) rotate(0 17.262500762939453 22.5)"><text x="0" y="0" font-family="Virgil, Segoe UI Emoji" font-size="36px" fill="#364fc7" text-anchor="start" style="white-space: pre;" direction="ltr" dominant-baseline="text-before-edge">10</text></g><g transform="translate(1473.0067338247054 285.8333380232507) rotate(0 9.75 22.5)"><text x="0" y="0" font-family="Virgil, Segoe UI Emoji" font-size="36px" fill="#364fc7" text-anchor="start" style="white-space: pre;" direction="ltr" dominant-baseline="text-before-edge">11</text></g><g transform="translate(1535.0692338247054 285.8333380232507) rotate(0 17.6875 22.5)"><text x="0" y="0" font-family="Virgil, Segoe UI Emoji" font-size="36px" fill="#364fc7" text-anchor="start" style="white-space: pre;" direction="ltr" dominant-baseline="text-before-edge">12</text></g><g transform="translate(1603.119233061766 285.8333380232507) rotate(0 17.137500762939453 22.5)"><text x="0" y="0" font-family="Virgil, Segoe UI Emoji" font-size="36px" fill="#364fc7" text-anchor="start" style="white-space: pre;" direction="ltr" dominant-baseline="text-before-edge">13</text></g><g transform="translate(1676.3567342061751 283.3333380232507) rotate(0 16.399999618530273 22.5)"><text x="0" y="0" font-family="Virgil, Segoe UI Emoji" font-size="36px" fill="#364fc7" text-anchor="start" style="white-space: pre;" direction="ltr" dominant-baseline="text-before-edge">14</text></g><g transform="translate(1739.2567338247054 280.8333380232507) rotate(0 16 22.5)"><text x="0" y="0" font-family="Virgil, Segoe UI Emoji" font-size="36px" fill="#364fc7" text-anchor="start" style="white-space: pre;" direction="ltr" dominant-baseline="text-before-edge">15</text></g></svg>