<svg version="1.1" xmlns="http://www.w3.org/2000/svg" viewBox="0 0 1676.699951171875 2363.0833333333358" width="1676.699951171875" height="2363.0833333333358">
  <!-- svg-source:excalidraw -->
  
  <defs>
    <style class="style-fonts">
      @font-face {
        font-family: "Virgil";
        src: url("https://excalidraw.com/Virgil.woff2");
      }
      @font-face {
        font-family: "Cascadia";
        src: url("https://excalidraw.com/Cascadia.woff2");
      }
    </style>
  </defs>
  <rect x="0" y="0" width="1676.699951171875" height="2363.0833333333358" fill="#ffffff"></rect><g transform="translate(476.0874938964844 10) rotate(0 275.98748779296875 22.5)"><text x="0" y="0" font-family="Virgil, Segoe UI Emoji" font-size="36px" fill="#5c940d" text-anchor="start" style="white-space: pre;" direction="ltr" dominant-baseline="text-before-edge">APPROACH 2 : Include/Exclude</text></g><g transform="translate(245 125.58333333333576) rotate(0 533.5625 45)"><text x="0" y="0" font-family="Virgil, Segoe UI Emoji" font-size="36px" fill="#364fc7" text-anchor="start" style="white-space: pre;" direction="ltr" dominant-baseline="text-before-edge">Include Exclude is a common pattern for DP problems. Here,</text><text x="0" y="45" font-family="Virgil, Segoe UI Emoji" font-size="36px" fill="#364fc7" text-anchor="start" style="white-space: pre;" direction="ltr" dominant-baseline="text-before-edge">Total ways = ways that include atleast one first coin</text></g><g transform="translate(750 233.08333333333576) rotate(0 11.25 22.5)"><text x="0" y="0" font-family="Virgil, Segoe UI Emoji" font-size="36px" fill="#364fc7" text-anchor="start" style="white-space: pre;" direction="ltr" dominant-baseline="text-before-edge">+</text></g><g transform="translate(445 288.08333333333576) rotate(0 409.2875061035156 22.5)"><text x="0" y="0" font-family="Virgil, Segoe UI Emoji" font-size="36px" fill="#364fc7" text-anchor="start" style="white-space: pre;" direction="ltr" dominant-baseline="text-before-edge">ways that dont include atleast one first coin</text></g><g transform="translate(245 408.08333333333576) rotate(0 228.58749389648438 22.5)"><text x="0" y="0" font-family="Virgil, Segoe UI Emoji" font-size="36px" fill="#000000" text-anchor="start" style="white-space: pre;" direction="ltr" dominant-baseline="text-before-edge">"Include" : Smaller problem</text></g><g stroke-linecap="round"><g transform="translate(735 433.08333333333576) rotate(0 45 0)"><path d="M0 0 C15 0, 75 0, 90 0 M0 0 C15 0, 75 0, 90 0" stroke="#000000" stroke-width="2" fill="none"></path></g><g transform="translate(735 433.08333333333576) rotate(0 45 0)"><path d="M61.81 10.26 C68.67 7.76, 75.53 5.26, 90 0 M61.81 10.26 C70.63 7.05, 79.46 3.84, 90 0" stroke="#000000" stroke-width="2" fill="none"></path></g><g transform="translate(735 433.08333333333576) rotate(0 45 0)"><path d="M61.81 -10.26 C68.67 -7.76, 75.53 -5.26, 90 0 M61.81 -10.26 C70.63 -7.05, 79.46 -3.84, 90 0" stroke="#000000" stroke-width="2" fill="none"></path></g></g><mask></mask><g transform="translate(857.5 405.58333333333576) rotate(0 248.7375030517578 22.5)"><text x="0" y="0" font-family="Virgil, Segoe UI Emoji" font-size="36px" fill="#000000" text-anchor="start" style="white-space: pre;" direction="ltr" dominant-baseline="text-before-edge">n coins, sum_amt - coins[0]</text></g><g stroke-linecap="round"><g transform="translate(237.5 460.58333333333576) rotate(0 91.25 0)"><path d="M0 0 C30.42 0, 152.08 0, 182.5 0 M0 0 C30.42 0, 152.08 0, 182.5 0" stroke="#000000" stroke-width="2" fill="none"></path></g></g><mask></mask><g transform="translate(248.7624969482422 500.58333333333576) rotate(0 232.625 22.5)"><text x="0" y="0" font-family="Virgil, Segoe UI Emoji" font-size="36px" fill="#000000" text-anchor="start" style="white-space: pre;" direction="ltr" dominant-baseline="text-before-edge">"Exclude" : Smaller problem</text></g><g stroke-linecap="round"><g transform="translate(738.7624969482422 525.5833333333358) rotate(0 45 0)"><path d="M0 0 C15 0, 75 0, 90 0 M0 0 C15 0, 75 0, 90 0" stroke="#000000" stroke-width="2" fill="none"></path></g><g transform="translate(738.7624969482422 525.5833333333358) rotate(0 45 0)"><path d="M61.81 10.26 C71.22 6.84, 80.63 3.41, 90 0 M61.81 10.26 C71.22 6.83, 80.64 3.41, 90 0" stroke="#000000" stroke-width="2" fill="none"></path></g><g transform="translate(738.7624969482422 525.5833333333358) rotate(0 45 0)"><path d="M61.81 -10.26 C71.22 -6.84, 80.63 -3.41, 90 0 M61.81 -10.26 C71.22 -6.83, 80.64 -3.41, 90 0" stroke="#000000" stroke-width="2" fill="none"></path></g></g><mask></mask><g transform="translate(861.2624969482422 498.08333333333576) rotate(0 218.9499969482422 22.5)"><text x="0" y="0" font-family="Virgil, Segoe UI Emoji" font-size="36px" fill="#000000" text-anchor="start" style="white-space: pre;" direction="ltr" dominant-baseline="text-before-edge">last n-1 coins, sum_amt </text></g><g stroke-linecap="round"><g transform="translate(241.2624969482422 553.0833333333358) rotate(0 91.25 0)"><path d="M0 0 C30.42 0, 152.08 0, 182.5 0 M0 0 C30.42 0, 152.08 0, 182.5 0" stroke="#000000" stroke-width="2" fill="none"></path></g></g><mask></mask><g transform="translate(717.5 643.0833333333358) rotate(0 382.2875061035156 22.5)"><text x="0" y="0" font-family="Virgil, Segoe UI Emoji" font-size="36px" fill="#364fc7" text-anchor="start" style="white-space: pre;" direction="ltr" dominant-baseline="text-before-edge">number_of_ways(coins, sum_amt -coins[0])</text></g><g transform="translate(1057.5 718.0833333333358) rotate(0 11.25 22.5)"><text x="0" y="0" font-family="Virgil, Segoe UI Emoji" font-size="36px" fill="#364fc7" text-anchor="start" style="white-space: pre;" direction="ltr" dominant-baseline="text-before-edge">+</text></g><g transform="translate(717.7124938964844 768.0833333333358) rotate(0 321.6000061035156 22.5)"><text x="0" y="0" font-family="Virgil, Segoe UI Emoji" font-size="36px" fill="#364fc7" text-anchor="start" style="white-space: pre;" direction="ltr" dominant-baseline="text-before-edge">number_of_ways(coins[1:], sum_amt)</text></g><g transform="translate(65 648.0833333333358) rotate(0 314.63751220703125 22.5)"><text x="0" y="0" font-family="Virgil, Segoe UI Emoji" font-size="36px" fill="#364fc7" text-anchor="start" style="white-space: pre;" direction="ltr" dominant-baseline="text-before-edge">number_of_ways(coins,sum_amt) = </text></g><g stroke-linecap="round" transform="translate(10 620.5833333333358) rotate(0 747.5 106.25)"><path d="M32 0 M32 0 C515.56 0, 999.12 0, 1463 0 M32 0 C539.55 0, 1047.09 0, 1463 0 M1463 0 C1484.33 0, 1495 10.67, 1495 32 M1463 0 C1484.33 0, 1495 10.67, 1495 32 M1495 32 C1495 89.96, 1495 147.91, 1495 180.5 M1495 32 C1495 66.84, 1495 101.69, 1495 180.5 M1495 180.5 C1495 201.83, 1484.33 212.5, 1463 212.5 M1495 180.5 C1495 201.83, 1484.33 212.5, 1463 212.5 M1463 212.5 C1111.68 212.5, 760.36 212.5, 32 212.5 M1463 212.5 C1034.45 212.5, 605.91 212.5, 32 212.5 M32 212.5 C10.67 212.5, 0 201.83, 0 180.5 M32 212.5 C10.67 212.5, 0 201.83, 0 180.5 M0 180.5 C0 143.47, 0 106.45, 0 32 M0 180.5 C0 149.17, 0 117.83, 0 32 M0 32 C0 10.67, 10.67 0, 32 0 M0 32 C0 10.67, 10.67 0, 32 0" stroke="#d9480f" stroke-width="2" fill="none"></path></g><g transform="translate(605 873.0833333333358) rotate(0 169.7375030517578 22.5)"><text x="0" y="0" font-family="Virgil, Segoe UI Emoji" font-size="36px" fill="#d9480f" text-anchor="start" style="white-space: pre;" direction="ltr" dominant-baseline="text-before-edge">Recurrence relation</text></g><g transform="translate(642.5 1043.0833333333358) rotate(0 139.7624969482422 22.5)"><text x="0" y="0" font-family="Virgil, Segoe UI Emoji" font-size="36px" fill="#000000" text-anchor="start" style="white-space: pre;" direction="ltr" dominant-baseline="text-before-edge">Recursion Steps</text></g><g stroke-linecap="round"><g transform="translate(637.5 1090.5833333333358) rotate(0 148.75 -1.25)"><path d="M0 0 C49.58 -0.42, 247.92 -2.08, 297.5 -2.5 M0 0 C49.58 -0.42, 247.92 -2.08, 297.5 -2.5" stroke="#000000" stroke-width="2" fill="none"></path></g></g><mask></mask><g stroke-linecap="round"><g transform="translate(641.25 1101.8333333333358) rotate(0 148.75 -1.25)"><path d="M0 0 C49.58 -0.42, 247.92 -2.08, 297.5 -2.5 M0 0 C49.58 -0.42, 247.92 -2.08, 297.5 -2.5" stroke="#000000" stroke-width="2" fill="none"></path></g></g><mask></mask><g transform="translate(590 1148.0833333333358) rotate(0 188.5500030517578 22.5)"><text x="0" y="0" font-family="Virgil, Segoe UI Emoji" font-size="36px" fill="#d9480f" text-anchor="start" style="white-space: pre;" direction="ltr" dominant-baseline="text-before-edge">1. Recurrence relation</text></g><g transform="translate(585 1213.0833333333358) rotate(0 156.7375030517578 22.5)"><text x="0" y="0" font-family="Virgil, Segoe UI Emoji" font-size="36px" fill="#5c940d" text-anchor="start" style="white-space: pre;" direction="ltr" dominant-baseline="text-before-edge">2. Identify inputs</text></g><g transform="translate(590 1315.5833333333358) rotate(0 217.6374969482422 22.5)"><text x="0" y="0" font-family="Virgil, Segoe UI Emoji" font-size="36px" fill="#5f3dc4" text-anchor="start" style="white-space: pre;" direction="ltr" dominant-baseline="text-before-edge">4. Terminating conditions</text></g><g transform="translate(590 1378.0833333333358) rotate(0 276.4750061035156 22.5)"><text x="0" y="0" font-family="Virgil, Segoe UI Emoji" font-size="36px" fill="#d9480f" text-anchor="start" style="white-space: pre;" direction="ltr" dominant-baseline="text-before-edge">5. Memoize overlapping problems</text></g><g transform="translate(445 1520.5833333333358) rotate(0 336.7250061035156 22.5)"><text x="0" y="0" font-family="Virgil, Segoe UI Emoji" font-size="36px" fill="#5c940d" text-anchor="start" style="white-space: pre;" direction="ltr" dominant-baseline="text-before-edge">def number_of_ways(coins, sum_amt):</text></g><g transform="translate(605 2058.0833333333358) rotate(0 530.8499755859375 22.5)"><text x="0" y="0" font-family="Virgil, Segoe UI Emoji" font-size="36px" fill="#000000" text-anchor="start" style="white-space: pre;" direction="ltr" dominant-baseline="text-before-edge">include_ans = number_of_ways (coins, sum_amt - coins[0])</text></g><g transform="translate(606.6500244140625 2120.5833333333358) rotate(0 477.7875061035156 22.5)"><text x="0" y="0" font-family="Virgil, Segoe UI Emoji" font-size="36px" fill="#000000" text-anchor="start" style="white-space: pre;" direction="ltr" dominant-baseline="text-before-edge">exclude_ans = number_of_ways (coins[1:], sum_amt )</text></g><g transform="translate(610 2190.5833333333358) rotate(0 321.3999938964844 22.5)"><text x="0" y="0" font-family="Virgil, Segoe UI Emoji" font-size="36px" fill="#000000" text-anchor="start" style="white-space: pre;" direction="ltr" dominant-baseline="text-before-edge">result = include_ans + exclude_ans</text></g><g transform="translate(610 2308.0833333333358) rotate(0 115.625 22.5)"><text x="0" y="0" font-family="Virgil, Segoe UI Emoji" font-size="36px" fill="#000000" text-anchor="start" style="white-space: pre;" direction="ltr" dominant-baseline="text-before-edge">return result</text></g><g transform="translate(586.625 1268.0833333333358) rotate(0 68.94999694824219 22.5)"><text x="0" y="0" font-family="Virgil, Segoe UI Emoji" font-size="36px" fill="#000000" text-anchor="start" style="white-space: pre;" direction="ltr" dominant-baseline="text-before-edge">3. Logic</text></g><g stroke-linecap="round"><g transform="translate(920 1223.0833333333358) rotate(0 153.19251344829627 141.25)"><path d="M0 0 C50 8.33, 265.83 2.92, 300 50 C334.17 97.08, 220.83 243.75, 205 282.5 M0 0 C50 8.33, 265.83 2.92, 300 50 C334.17 97.08, 220.83 243.75, 205 282.5" stroke="#5c940d" stroke-width="2" fill="none"></path></g><g transform="translate(920 1223.0833333333358) rotate(0 153.19251344829627 141.25)"><path d="M210.3 252.97 C209.2 259.1, 208.1 265.24, 205 282.5 M210.3 252.97 C208.69 261.96, 207.07 270.94, 205 282.5" stroke="#5c940d" stroke-width="2" fill="none"></path></g><g transform="translate(920 1223.0833333333358) rotate(0 153.19251344829627 141.25)"><path d="M228.04 263.29 C223.26 267.28, 218.47 271.27, 205 282.5 M228.04 263.29 C221.03 269.13, 214.02 274.98, 205 282.5" stroke="#5c940d" stroke-width="2" fill="none"></path></g></g><mask></mask><g stroke-linecap="round"><g transform="translate(565 1283.0833333333358) rotate(0 -123.35127506273693 376.030649528755)"><path d="M0 0 C-46.25 10, -282.65 -67.74, -277.5 60 C-272.35 187.74, -20.52 648.71, 30.88 766.45 M0 0 C-46.25 10, -282.65 -67.74, -277.5 60 C-272.35 187.74, -20.52 648.71, 30.88 766.45" stroke="#000000" stroke-width="2" fill="none"></path></g><g transform="translate(565 1283.0833333333358) rotate(0 -123.35127506273693 376.030649528755)"><path d="M9.27 745.64 C17.83 753.89, 26.4 762.13, 30.88 766.45 M9.27 745.64 C15 751.16, 20.73 756.68, 30.88 766.45" stroke="#000000" stroke-width="2" fill="none"></path></g><g transform="translate(565 1283.0833333333358) rotate(0 -123.35127506273693 376.030649528755)"><path d="M27.7 736.62 C28.96 748.44, 30.22 760.26, 30.88 766.45 M27.7 736.62 C28.54 744.53, 29.39 752.44, 30.88 766.45" stroke="#000000" stroke-width="2" fill="none"></path></g></g><mask></mask><g transform="translate(615 1588.0833333333358) rotate(0 158.46249389648438 45)"><text x="0" y="0" font-family="Virgil, Segoe UI Emoji" font-size="36px" fill="#5f3dc4" text-anchor="start" style="white-space: pre;" direction="ltr" dominant-baseline="text-before-edge">if sum_amt == 0:</text><text x="0" y="45" font-family="Virgil, Segoe UI Emoji" font-size="36px" fill="#5f3dc4" text-anchor="start" style="white-space: pre;" direction="ltr" dominant-baseline="text-before-edge">    return 1</text></g><g transform="translate(611.5375061035156 1685.5833333333358) rotate(0 147.14999389648438 45)"><text x="0" y="0" font-family="Virgil, Segoe UI Emoji" font-size="36px" fill="#5f3dc4" text-anchor="start" style="white-space: pre;" direction="ltr" dominant-baseline="text-before-edge">if sum_amt &lt; 0:</text><text x="0" y="45" font-family="Virgil, Segoe UI Emoji" font-size="36px" fill="#5f3dc4" text-anchor="start" style="white-space: pre;" direction="ltr" dominant-baseline="text-before-edge">    return 0</text></g><g transform="translate(610.3500061035156 1780.5833333333358) rotate(0 156.3000030517578 45)"><text x="0" y="0" font-family="Virgil, Segoe UI Emoji" font-size="36px" fill="#5f3dc4" text-anchor="start" style="white-space: pre;" direction="ltr" dominant-baseline="text-before-edge">if len(coins) == 0:</text><text x="0" y="45" font-family="Virgil, Segoe UI Emoji" font-size="36px" fill="#5f3dc4" text-anchor="start" style="white-space: pre;" direction="ltr" dominant-baseline="text-before-edge">    return 0</text></g><g stroke-linecap="round"><g transform="translate(565 1330.5833333333358) rotate(0 -98.76732580740281 138.61540107531255)"><path d="M0 0 C-35.83 2.5, -217.92 -32.92, -215 15 C-212.08 62.92, -21.25 242.08, 17.5 287.5 M0 0 C-35.83 2.5, -217.92 -32.92, -215 15 C-212.08 62.92, -21.25 242.08, 17.5 287.5" stroke="#5f3dc4" stroke-width="2" fill="none"></path></g><g transform="translate(565 1330.5833333333358) rotate(0 -98.76732580740281 138.61540107531255)"><path d="M-9.4 274.21 C0.87 279.28, 11.13 284.36, 17.5 287.5 M-9.4 274.21 C-0.78 278.47, 7.83 282.72, 17.5 287.5" stroke="#5f3dc4" stroke-width="2" fill="none"></path></g><g transform="translate(565 1330.5833333333358) rotate(0 -98.76732580740281 138.61540107531255)"><path d="M5.44 260.03 C10.04 270.52, 14.64 281, 17.5 287.5 M5.44 260.03 C9.3 268.83, 13.16 277.63, 17.5 287.5" stroke="#5f3dc4" stroke-width="2" fill="none"></path></g></g><mask></mask><g transform="translate(615 1893.0833333333358) rotate(0 337.8500061035156 22.5)"><text x="0" y="0" font-family="Virgil, Segoe UI Emoji" font-size="36px" fill="#d9480f" text-anchor="start" style="white-space: pre;" direction="ltr" dominant-baseline="text-before-edge">key = str(len(coins)) + '_' + sum_amt</text></g><g transform="translate(614.0375061035156 1950.5833333333358) rotate(0 185.1875 45)"><text x="0" y="0" font-family="Virgil, Segoe UI Emoji" font-size="36px" fill="#d9480f" text-anchor="start" style="white-space: pre;" direction="ltr" dominant-baseline="text-before-edge">if key in ways:</text><text x="0" y="45" font-family="Virgil, Segoe UI Emoji" font-size="36px" fill="#d9480f" text-anchor="start" style="white-space: pre;" direction="ltr" dominant-baseline="text-before-edge">    return ways[key]</text></g><g transform="translate(617.5 2250.5833333333358) rotate(0 167.66250610351562 22.5)"><text x="0" y="0" font-family="Virgil, Segoe UI Emoji" font-size="36px" fill="#d9480f" text-anchor="start" style="white-space: pre;" direction="ltr" dominant-baseline="text-before-edge">ways[key] = result</text></g><g stroke-linecap="round"><g transform="translate(1062.5 1418.0833333333358) rotate(0 -37.5 233.75)"><path d="M0 0 C-12.5 77.92, -62.5 389.58, -75 467.5 M0 0 C-12.5 77.92, -62.5 389.58, -75 467.5" stroke="#d9480f" stroke-width="2" fill="none"></path></g><g transform="translate(1062.5 1418.0833333333358) rotate(0 -37.5 233.75)"><path d="M-80.67 438.04 C-78.8 447.74, -76.94 457.43, -75 467.5 M-80.67 438.04 C-78.48 449.42, -76.29 460.79, -75 467.5" stroke="#d9480f" stroke-width="2" fill="none"></path></g><g transform="translate(1062.5 1418.0833333333358) rotate(0 -37.5 233.75)"><path d="M-60.4 441.29 C-65.21 449.92, -70.01 458.54, -75 467.5 M-60.4 441.29 C-66.04 451.41, -71.68 461.53, -75 467.5" stroke="#d9480f" stroke-width="2" fill="none"></path></g></g><mask></mask></svg>